<?xml version="1.0" encoding="UTF-8" standalone="no"?>
<svg
   xmlns:dc="http://purl.org/dc/elements/1.1/"
   xmlns:cc="http://creativecommons.org/ns#"
   xmlns:rdf="http://www.w3.org/1999/02/22-rdf-syntax-ns#"
   xmlns:svg="http://www.w3.org/2000/svg"
   xmlns="http://www.w3.org/2000/svg"
   xmlns:xlink="http://www.w3.org/1999/xlink"
   xmlns:sodipodi="http://sodipodi.sourceforge.net/DTD/sodipodi-0.dtd"
   xmlns:inkscape="http://www.inkscape.org/namespaces/inkscape"
   width="44"
   height="44"
   viewBox="0 0 44 44"
   version="1.1"
   id="svg6374"
   inkscape:version="1.0.2 (e86c870879, 2021-01-15)"
   sodipodi:docname="close-active.svg">
  <defs
     id="defs6368">
    <linearGradient
       inkscape:collect="always"
       xlink:href="#linearGradient858-3"
       id="linearGradient1439"
       x1="32"
       y1="104"
       x2="32"
       y2="160"
       gradientUnits="userSpaceOnUse"
       gradientTransform="matrix(0.68750004,0,0,0.68750004,4.0462242e-6,-68.750002)" />
    <linearGradient
       inkscape:collect="always"
       xlink:href="#linearGradient864-5"
       id="linearGradient1433"
       gradientUnits="userSpaceOnUse"
       x1="32"
       y1="0"
       x2="32"
       y2="64"
       gradientTransform="matrix(0.68750004,0,0,0.68750004,4.0462242e-6,2.7672324e-6)" />
    <linearGradient
       inkscape:collect="always"
       id="linearGradient858-3">
      <stop
         style="stop-color:#cd3769;stop-opacity:1"
         offset="0"
         id="stop854-6" />
      <stop
         style="stop-color:#ed7da3;stop-opacity:1"
         offset="1"
         id="stop856-7" />
    </linearGradient>
    <linearGradient
       inkscape:collect="always"
       id="linearGradient864-5">
      <stop
         style="stop-color:#ee81a5;stop-opacity:1"
         offset="0"
         id="stop860-3" />
      <stop
         style="stop-color:#cd3769;stop-opacity:1"
         offset="1"
         id="stop862-5" />
    </linearGradient>
  </defs>
  <sodipodi:namedview
     id="base"
     pagecolor="#cecece"
     bordercolor="#666666"
     borderopacity="1.0"
     inkscape:pageopacity="0"
     inkscape:pageshadow="2"
     inkscape:zoom="11.078036"
     inkscape:cx="42.16216"
     inkscape:cy="18.909545"
     inkscape:document-units="px"
     inkscape:current-layer="layer1"
     inkscape:document-rotation="0"
     showgrid="false"
     units="px"
     inkscape:window-width="1920"
     inkscape:window-height="1008"
     inkscape:window-x="0"
     inkscape:window-y="0"
     inkscape:window-maximized="1" />
  <metadata
     id="metadata6371">
    <rdf:RDF>
      <cc:Work
         rdf:about="">
        <dc:format>image/svg+xml</dc:format>
        <dc:type
           rdf:resource="http://purl.org/dc/dcmitype/StillImage" />
        <dc:title></dc:title>
      </cc:Work>
    </rdf:RDF>
  </metadata>
  <g
     inkscape:label="Layer 1"
     inkscape:groupmode="layer"
     id="layer1">
    <circle
       style="fill:url(#linearGradient1433);fill-opacity:1;stroke:none;stroke-width:0;stroke-linecap:round;stroke-linejoin:round;stroke-miterlimit:4;stroke-dasharray:none;paint-order:normal"
       id="path1011-9-1"
       cx="22"
       cy="22"
       r="22" />
    <circle
       style="fill:url(#linearGradient1439);fill-opacity:1;stroke:none;stroke-width:0;stroke-linecap:round;stroke-linejoin:round;stroke-miterlimit:4;stroke-dasharray:none;paint-order:normal"
       id="path1011-94"
       cx="22"
       cy="22"
       r="19.25" />
    <path
       id="rect1295-2-7"
       style="fill:#932540;fill-opacity:1;stroke:#d74168;stroke-width:0;stroke-linecap:round;stroke-linejoin:round;stroke-miterlimit:4;stroke-dasharray:none;stroke-opacity:1;paint-order:normal"
       d="m 33.567118,11.120428 c -1.077236,-1.077237 -2.811702,-1.077237 -3.88894,0 L 22,18.798606 14.321821,11.120428 c -1.077237,-1.077237 -2.81171,-1.07723 -3.888939,0 -1.0772372,1.077236 -1.0772302,2.811695 0,3.888932 l 7.678185,7.678186 -7.678185,7.678178 c -1.0772372,1.077238 -1.0772372,2.811704 0,3.88894 1.077236,1.077238 2.811702,1.077238 3.888939,-6e-6 L 22,26.576478 l 7.678186,7.67818 c 1.07723,1.077236 2.811696,1.077236 3.888932,6e-6 1.07723,-1.077236 1.077238,-2.811702 0,-3.88894 l -7.678178,-7.678178 7.678172,-7.678179 c 1.077244,-1.077244 1.077244,-2.811703 6e-6,-3.888939 z" />
    <path
       id="rect1109-1-0-8"
       style="fill:#f5f6f7;fill-opacity:1;stroke:#d74168;stroke-width:0;stroke-linecap:round;stroke-linejoin:round;stroke-miterlimit:4;stroke-dasharray:none;stroke-opacity:1;paint-order:normal"
       d="m 32.44463,11.555369 c -0.740658,-0.740643 -1.933182,-0.740643 -2.673826,0 l -7.770806,7.770806 -7.770805,-7.770806 c -0.74065,-0.74065 -1.933174,-0.740643 -2.673825,0 -0.740644,0.740651 -0.740651,1.933175 0,2.673825 L 19.326174,22 11.555368,29.770806 c -0.740644,0.740644 -0.740651,1.933174 0,2.673824 0.740651,0.740652 1.933181,0.740644 2.673825,0 l 7.770805,-7.770804 7.770806,7.770804 c 0.740652,0.740652 1.933174,0.740644 2.673826,0 0.74065,-0.74065 0.74065,-1.933174 0,-2.673824 L 24.673824,22 32.44463,14.229194 c 0.740644,-0.740643 0.74065,-1.933174 0,-2.673825 z" />
    <circle
       style="fill:#f690f6;fill-opacity:1;stroke:none;stroke-width:0.611906;stroke-miterlimit:4;stroke-dasharray:none;stroke-opacity:1"
       id="path1201"
       cx="22.370321"
       cy="5.0679665"
       r="0" />
  </g>
</svg>
