<?xml version="1.0" encoding="UTF-8" standalone="no"?>
<svg
   xmlns:dc="http://purl.org/dc/elements/1.1/"
   xmlns:cc="http://creativecommons.org/ns#"
   xmlns:rdf="http://www.w3.org/1999/02/22-rdf-syntax-ns#"
   xmlns:svg="http://www.w3.org/2000/svg"
   xmlns="http://www.w3.org/2000/svg"
   xmlns:sodipodi="http://sodipodi.sourceforge.net/DTD/sodipodi-0.dtd"
   xmlns:inkscape="http://www.inkscape.org/namespaces/inkscape"
   width="22"
   height="22"
   viewBox="0 0 22 22"
   version="1.1"
   id="svg6374"
   inkscape:version="1.0.2 (e86c870879, 2021-01-15)"
   sodipodi:docname="maximize.svg">
  <defs
     id="defs6368" />
  <sodipodi:namedview
     id="base"
     pagecolor="#cecece"
     bordercolor="#666666"
     borderopacity="1.0"
     inkscape:pageopacity="0"
     inkscape:pageshadow="2"
     inkscape:zoom="19.787255"
     inkscape:cx="11.479578"
     inkscape:cy="17.292316"
     inkscape:document-units="px"
     inkscape:current-layer="layer1"
     inkscape:document-rotation="0"
     showgrid="false"
     units="px"
     inkscape:window-width="1267"
     inkscape:window-height="1008"
     inkscape:window-x="65"
     inkscape:window-y="54"
     inkscape:window-maximized="0" />
  <metadata
     id="metadata6371">
    <rdf:RDF>
      <cc:Work
         rdf:about="">
        <dc:format>image/svg+xml</dc:format>
        <dc:type
           rdf:resource="http://purl.org/dc/dcmitype/StillImage" />
        <dc:title></dc:title>
      </cc:Work>
    </rdf:RDF>
  </metadata>
  <g
     inkscape:label="Layer 1"
     inkscape:groupmode="layer"
     id="layer1">
    <path
       id="rect1295-9-1-7-6-5-9"
       style="fill:#505053;fill-opacity:1;stroke:#d74168;stroke-width:0;stroke-linecap:round;stroke-linejoin:round;stroke-miterlimit:4;stroke-dasharray:none;stroke-opacity:1;paint-order:normal"
       d="m 10.999841,7.321 c -0.351471,0 -0.703512,0.1341885 -0.972823,0.4035212 L 5.2159639,12.536576 c -0.5386185,0.538662 -0.5386185,1.405762 0,1.944428 0.5386321,0.538661 1.4063433,0.538661 1.9449688,0 l 3.8389083,-3.839172 3.838901,3.839172 c 0.538626,0.538661 1.405663,0.538661 1.944289,0 0.538625,-0.538666 0.538625,-1.405766 0,-1.944428 L 11.97198,7.7245212 C 11.702672,7.4551885 11.351301,7.321 10.999841,7.321 Z" />
    <path
       id="rect1111-8-2-2-6-9-91-0-6"
       style="fill:#dfe0e1;fill-opacity:1;stroke:#d74168;stroke-width:0;stroke-linecap:round;stroke-linejoin:round;stroke-miterlimit:4;stroke-dasharray:none;stroke-opacity:1;paint-order:normal"
       d="m 10.999167,7.7766031 c -0.241639,0 -0.482863,0.092797 -0.668017,0.2779575 L 5.7772279,12.608651 c -0.3703048,0.370321 -0.3703048,0.966435 0,1.336756 0.3703083,0.370318 0.966395,0.370318 1.3367033,0 l 3.8852358,-3.885382 3.885232,3.885382 c 0.370305,0.370318 0.967069,0.370318 1.337373,0 0.370305,-0.370321 0.370305,-0.966435 0,-1.336756 L 11.667853,8.0545606 C 11.482699,7.8693999 11.240799,7.7766031 10.999167,7.7766031 Z" />
  </g>
</svg>
