<?xml version="1.0" encoding="UTF-8" standalone="no"?>
<svg
   xmlns:dc="http://purl.org/dc/elements/1.1/"
   xmlns:cc="http://creativecommons.org/ns#"
   xmlns:rdf="http://www.w3.org/1999/02/22-rdf-syntax-ns#"
   xmlns:svg="http://www.w3.org/2000/svg"
   xmlns="http://www.w3.org/2000/svg"
   xmlns:xlink="http://www.w3.org/1999/xlink"
   xmlns:sodipodi="http://sodipodi.sourceforge.net/DTD/sodipodi-0.dtd"
   xmlns:inkscape="http://www.inkscape.org/namespaces/inkscape"
   width="22"
   height="22"
   viewBox="0 0 22 22"
   version="1.1"
   id="svg6374"
   inkscape:version="1.0.2 (e86c870879, 2021-01-15)"
   sodipodi:docname="minimize-backdrop-hover.svg">
  <defs
     id="defs6368">
    <radialGradient
       inkscape:collect="always"
       xlink:href="#linearGradient900-3"
       id="radialGradient876"
       cx="192"
       cy="192"
       fx="192"
       fy="192"
       r="192"
       gradientUnits="userSpaceOnUse"
       gradientTransform="matrix(0.06922744,0,0,0.0674371,-2.2916717,-1.9479164)" />
    <linearGradient
       inkscape:collect="always"
       id="linearGradient900-3">
      <stop
         style="stop-color:#7272d9;stop-opacity:1"
         offset="0"
         id="stop896-6" />
      <stop
         style="stop-color:#5151cc;stop-opacity:1"
         offset="1"
         id="stop898-7" />
    </linearGradient>
  </defs>
  <sodipodi:namedview
     id="base"
     pagecolor="#cecece"
     bordercolor="#666666"
     borderopacity="1.0"
     inkscape:pageopacity="0"
     inkscape:pageshadow="2"
     inkscape:zoom="13.527285"
     inkscape:cx="26.302214"
     inkscape:cy="14.143724"
     inkscape:document-units="px"
     inkscape:current-layer="layer1"
     inkscape:document-rotation="0"
     showgrid="false"
     units="px"
     inkscape:window-width="1267"
     inkscape:window-height="1008"
     inkscape:window-x="65"
     inkscape:window-y="54"
     inkscape:window-maximized="0" />
  <metadata
     id="metadata6371">
    <rdf:RDF>
      <cc:Work
         rdf:about="">
        <dc:format>image/svg+xml</dc:format>
        <dc:type
           rdf:resource="http://purl.org/dc/dcmitype/StillImage" />
        <dc:title></dc:title>
      </cc:Work>
    </rdf:RDF>
  </metadata>
  <g
     inkscape:label="Layer 1"
     inkscape:groupmode="layer"
     id="layer1">
    <circle
       style="fill:url(#radialGradient876);fill-opacity:1;stroke:none;stroke-width:0;stroke-linecap:round;stroke-linejoin:round;stroke-miterlimit:4;stroke-dasharray:none;paint-order:normal"
       id="path1011-9-1-0"
       cx="11"
       cy="11"
       r="11" />
    <path
       id="rect1295-9-1-7-6-5-2"
       style="fill:#282178;fill-opacity:0.54902;stroke:#d74168;stroke-width:0;stroke-linecap:round;stroke-linejoin:round;stroke-miterlimit:4;stroke-dasharray:none;stroke-opacity:1;paint-order:normal"
       d="m 11.000336,14.996784 c -0.35147,0 -0.703512,-0.134187 -0.972823,-0.403515 L 5.2164607,9.7812951 c -0.5386184,-0.5386528 -0.5386184,-1.4057381 0,-1.9443944 0.5386322,-0.5386528 1.4063431,-0.5386528 1.9449684,0 l 3.8389069,3.8391063 3.838901,-3.8391063 c 0.538625,-0.5386528 1.405662,-0.5386528 1.944287,0 0.538626,0.5386563 0.538626,1.4057416 0,1.9443944 l -4.811049,4.8119739 c -0.269307,0.269328 -0.620678,0.403515 -0.972139,0.403515 z" />
    <path
       id="rect1111-8-2-2-6-9-91-0-1"
       style="fill:#c5c4c3;fill-opacity:1;stroke:#d74168;stroke-width:0;stroke-linecap:round;stroke-linejoin:round;stroke-miterlimit:4;stroke-dasharray:none;stroke-opacity:1;paint-order:normal"
       d="m 10.999663,14.223099 c -0.24164,0 -0.482863,-0.0928 -0.668017,-0.277953 L 5.7777254,9.391132 c -0.3703047,-0.370315 -0.3703047,-0.9664188 0,-1.3367338 0.3703081,-0.3703115 0.9663947,-0.3703115 1.3367028,0 l 3.8852348,3.8853168 3.88523,-3.8853168 c 0.370305,-0.3703115 0.967069,-0.3703115 1.337374,0 0.370304,0.370315 0.370304,0.9664188 0,1.3367338 l -4.553918,4.554014 c -0.185154,0.185157 -0.427054,0.277953 -0.668686,0.277953 z" />
  </g>
</svg>
