<?xml version="1.0" encoding="UTF-8" standalone="no"?>
<svg
   xmlns:dc="http://purl.org/dc/elements/1.1/"
   xmlns:cc="http://creativecommons.org/ns#"
   xmlns:rdf="http://www.w3.org/1999/02/22-rdf-syntax-ns#"
   xmlns:svg="http://www.w3.org/2000/svg"
   xmlns="http://www.w3.org/2000/svg"
   xmlns:sodipodi="http://sodipodi.sourceforge.net/DTD/sodipodi-0.dtd"
   xmlns:inkscape="http://www.inkscape.org/namespaces/inkscape"
   width="22"
   height="22"
   viewBox="0 0 22 22"
   version="1.1"
   id="svg6374"
   inkscape:version="1.0.2 (e86c870879, 2021-01-15)"
   sodipodi:docname="restore-backdrop.svg">
  <defs
     id="defs6368" />
  <sodipodi:namedview
     id="base"
     pagecolor="#cecece"
     bordercolor="#666666"
     borderopacity="1.0"
     inkscape:pageopacity="0"
     inkscape:pageshadow="2"
     inkscape:zoom="9.4351338"
     inkscape:cx="27.130541"
     inkscape:cy="15.834803"
     inkscape:document-units="px"
     inkscape:current-layer="layer1"
     inkscape:document-rotation="0"
     showgrid="false"
     units="px"
     inkscape:window-width="1920"
     inkscape:window-height="1008"
     inkscape:window-x="0"
     inkscape:window-y="0"
     inkscape:window-maximized="1" />
  <metadata
     id="metadata6371">
    <rdf:RDF>
      <cc:Work
         rdf:about="">
        <dc:format>image/svg+xml</dc:format>
        <dc:type
           rdf:resource="http://purl.org/dc/dcmitype/StillImage" />
        <dc:title></dc:title>
      </cc:Work>
    </rdf:RDF>
  </metadata>
  <g
     inkscape:label="Layer 1"
     inkscape:groupmode="layer"
     id="layer1">
    <path
       id="rect1295-9-1-7-2-1-1-0-3"
       style="fill:#555558;fill-opacity:1;stroke:#d74168;stroke-width:0;stroke-linecap:round;stroke-linejoin:round;stroke-miterlimit:4;stroke-dasharray:none;stroke-opacity:1;paint-order:normal"
       d="m 11.000159,4.8120005 c -0.351485,0 -0.703557,0.134175 -0.972853,0.403504 L 5.2161155,10.027333 c -0.134648,0.134664 -0.236158,0.289748 -0.303465,0.455202 -0.03369,0.08273 -0.05837,0.16788 -0.07521,0.254453 -0.016847,0.08678 -0.02544,0.174443 -0.02544,0.262512 0,0.08786 0.0086,0.175268 0.02544,0.261842 0.05043,0.259968 0.176517,0.508161 0.378678,0.710328 l 4.8111905,4.811825 c 0.269365,0.269329 0.621436,0.403504 0.972922,0.403504 0.351453,0 0.702183,-0.134175 0.971478,-0.403504 l 4.811178,-4.811825 c 0.06734,-0.06733 0.126742,-0.139875 0.177239,-0.216188 0.101132,-0.152817 0.16782,-0.320757 0.201439,-0.49414 0.01684,-0.08657 0.02544,-0.173982 0.02544,-0.261842 0,-0.08807 -0.0086,-0.175731 -0.02544,-0.262512 -0.01684,-0.08657 -0.04153,-0.171727 -0.07521,-0.254453 -0.06731,-0.165454 -0.168817,-0.320538 -0.303465,-0.455202 L 11.971706,5.2155045 c -0.269295,-0.269329 -0.620025,-0.403504 -0.971478,-0.403504 z m 0,3.32068 L 13.866283,10.9995 11.000159,13.866323 8.1333005,10.9995 Z" />
    <path
       id="rect1111-8-2-2-6-9-91-7-7-2-3-1-4"
       style="fill:#a0a0a0;fill-opacity:1;stroke:#d74168;stroke-width:0;stroke-linecap:round;stroke-linejoin:round;stroke-miterlimit:4;stroke-dasharray:none;stroke-opacity:1;paint-order:normal"
       d="m 10.998461,5.4995005 c -0.241621,0 -0.482208,0.0928 -0.667317,0.27795 L 5.7813095,10.327342 c 0,0.0014 -0.0034,0.0021 -0.0041,0.0034 v 6.87e-4 c -0.04613,0.04618 -0.0869,0.09538 -0.121515,0.147703 -1.15e-4,1.15e-4 1.14e-4,3.44e-4 0,6.88e-4 -0.03458,0.05231 -0.06421,0.107124 -0.08728,0.163814 -5.7e-5,1.72e-4 5.7e-5,3.43e-4 0,6.87e-4 -0.02303,0.05668 -0.04018,0.115247 -0.0517,0.174556 -3.1e-5,2.29e-4 3.4e-5,3.44e-4 0,6.87e-4 -0.01134,0.05923 -0.01719,0.119675 -0.01719,0.17985 0,2.3e-4 0,3.44e-4 0,6.88e-4 3.4e-5,0.06018 0.0058,0.119958 0.01753,0.179258 3.4e-5,2.29e-4 -3.5e-5,3.44e-4 0,6.88e-4 0.01169,0.0593 0.02853,0.117883 0.0517,0.174555 5.7e-5,1.73e-4 -1.15e-4,3.44e-4 0,6.87e-4 0.02303,0.05668 0.05266,0.111521 0.08728,0.163814 1.14e-4,1.73e-4 -1.15e-4,3.44e-4 0,6.88e-4 0.03465,0.05231 0.07535,0.101538 0.121515,0.147704 1.15e-4,1.14e-4 -1.15e-4,6.87e-4 0,6.87e-4 0,0.0014 0.0034,0.0021 0.0041,0.0034 l 4.5498345,4.549893 c 0.185109,0.185154 0.425699,0.277947 0.667321,0.277947 0.24167,0 0.483601,-0.09279 0.66871,-0.277947 l 4.549835,-4.549893 0.0041,-0.004 c 0.04617,-0.04616 0.08687,-0.0954 0.121515,-0.147703 1.15e-4,-1.72e-4 -1.14e-4,-6.88e-4 0,-6.88e-4 0.03462,-0.05229 0.06418,-0.107134 0.08728,-0.163814 1.15e-4,-1.71e-4 -5.7e-5,-3.43e-4 0,-6.87e-4 0.02303,-0.05667 0.04015,-0.115254 0.0517,-0.174556 3.5e-5,-2.29e-4 -3.4e-5,-3.44e-4 0,-6.88e-4 0.01169,-0.0593 0.01753,-0.119079 0.01753,-0.179258 0,-0.06061 -0.0058,-0.121548 -0.01753,-0.18127 -0.01169,-0.05931 -0.02853,-0.117872 -0.0517,-0.174555 -5.7e-5,-1.72e-4 5.8e-5,-3.44e-4 0,-6.87e-4 -0.02303,-0.05669 -0.0527,-0.111503 -0.08728,-0.163817 -1.14e-4,-1.15e-4 1.15e-4,-3.44e-4 0,-6.88e-4 -0.03462,-0.05232 -0.07538,-0.101518 -0.121515,-0.147699 l -0.0041,-0.004 -4.549835,-4.5498955 c -0.185281,-0.185164 -0.427212,-0.277961 -0.668882,-0.277961 z m 0,2.283339 3.21655,3.2165475 -3.21655,3.216547 -3.2158075,-3.216547 z" />
  </g>
</svg>
