<?xml version="1.0" encoding="UTF-8" standalone="no"?>
<svg
   xmlns:dc="http://purl.org/dc/elements/1.1/"
   xmlns:cc="http://creativecommons.org/ns#"
   xmlns:rdf="http://www.w3.org/1999/02/22-rdf-syntax-ns#"
   xmlns:svg="http://www.w3.org/2000/svg"
   xmlns="http://www.w3.org/2000/svg"
   xmlns:xlink="http://www.w3.org/1999/xlink"
   xmlns:sodipodi="http://sodipodi.sourceforge.net/DTD/sodipodi-0.dtd"
   xmlns:inkscape="http://www.inkscape.org/namespaces/inkscape"
   width="44"
   height="44"
   viewBox="0 0 44 44"
   version="1.1"
   id="svg6374"
   inkscape:version="1.0.2 (e86c870879, 2021-01-15)"
   sodipodi:docname="close-hover@2.svg">
  <defs
     id="defs6368">
    <linearGradient
       inkscape:collect="always"
       xlink:href="#linearGradient906"
       id="linearGradient1067"
       x1="32"
       y1="0"
       x2="32"
       y2="64"
       gradientUnits="userSpaceOnUse"
       gradientTransform="scale(0.6875)" />
    <linearGradient
       inkscape:collect="always"
       id="linearGradient906">
      <stop
         style="stop-color:#d74168;stop-opacity:1"
         offset="0"
         id="stop902" />
      <stop
         style="stop-color:#d74168;stop-opacity:1"
         offset="1"
         id="stop904" />
    </linearGradient>
    <radialGradient
       inkscape:collect="always"
       xlink:href="#linearGradient900"
       id="radialGradient1077"
       cx="32"
       cy="32"
       fx="32"
       fy="32"
       r="28"
       gradientUnits="userSpaceOnUse"
       gradientTransform="matrix(1.1785715,0,0,1.1785716,-15.714289,-15.714288)" />
    <linearGradient
       inkscape:collect="always"
       id="linearGradient900">
      <stop
         style="stop-color:#f288a3;stop-opacity:1"
         offset="0"
         id="stop896" />
      <stop
         style="stop-color:#d94c71;stop-opacity:1"
         offset="1"
         id="stop898" />
    </linearGradient>
  </defs>
  <sodipodi:namedview
     id="base"
     pagecolor="#cecece"
     bordercolor="#666666"
     borderopacity="1.0"
     inkscape:pageopacity="0"
     inkscape:pageshadow="2"
     inkscape:zoom="8.7560234"
     inkscape:cx="24.58762"
     inkscape:cy="29.158466"
     inkscape:document-units="px"
     inkscape:current-layer="layer1"
     inkscape:document-rotation="0"
     showgrid="false"
     units="px"
     inkscape:window-width="1920"
     inkscape:window-height="1006"
     inkscape:window-x="0"
     inkscape:window-y="0"
     inkscape:window-maximized="1" />
  <metadata
     id="metadata6371">
    <rdf:RDF>
      <cc:Work
         rdf:about="">
        <dc:format>image/svg+xml</dc:format>
        <dc:type
           rdf:resource="http://purl.org/dc/dcmitype/StillImage" />
        <dc:title></dc:title>
      </cc:Work>
    </rdf:RDF>
  </metadata>
  <g
     inkscape:label="Layer 1"
     inkscape:groupmode="layer"
     id="layer1">
    <circle
       style="fill:url(#linearGradient1067);fill-opacity:1;stroke:none;stroke-width:0;stroke-linecap:round;stroke-linejoin:round;stroke-miterlimit:4;stroke-dasharray:none;paint-order:normal"
       id="path1011-9"
       cx="22"
       cy="22"
       r="22" />
    <circle
       style="fill:url(#radialGradient1077);fill-opacity:1;stroke:none;stroke-width:0;stroke-linecap:round;stroke-linejoin:round;stroke-miterlimit:4;stroke-dasharray:none;paint-order:normal"
       id="path1011"
       cx="22"
       cy="22"
       r="19.25" />
    <path
       id="rect1295-2"
       style="fill:#b5264b;fill-opacity:1;stroke:#d74168;stroke-width:0;stroke-linecap:round;stroke-linejoin:round;stroke-miterlimit:4;stroke-dasharray:none;stroke-opacity:1;paint-order:normal"
       d="m 33.56712,11.120426 c -1.077236,-1.077236 -2.811701,-1.077236 -3.888942,0 l -7.678176,7.678178 -7.678182,-7.678178 c -1.077235,-1.077236 -2.811705,-1.07723 -3.888939,0 -1.0772334,1.077237 -1.0772325,2.811696 3e-6,3.888933 l 7.678181,7.678185 -7.678181,7.67818 c -1.0772383,1.077237 -1.0772383,2.811702 -3e-6,3.88894 1.077236,1.077237 2.8117,1.077237 3.888938,-8e-6 l 7.678183,-7.678178 7.678181,7.67818 c 1.077234,1.077236 2.811699,1.077236 3.888933,6e-6 1.077234,-1.077238 1.077237,-2.811703 4e-6,-3.88894 l -7.678182,-7.67818 7.678176,-7.678178 c 1.077241,-1.077244 1.077241,-2.811703 6e-6,-3.88894 z" />
    <path
       id="rect1109-1-0"
       style="fill:#fbfcfd;fill-opacity:1;stroke:#d74168;stroke-width:0;stroke-linecap:round;stroke-linejoin:round;stroke-miterlimit:4;stroke-dasharray:none;stroke-opacity:1;paint-order:normal"
       d="m 32.44463,11.555368 c -0.740654,-0.740644 -1.933182,-0.740644 -2.673825,0 L 22,19.326173 14.229196,11.555368 c -0.740649,-0.74065 -1.933178,-0.740644 -2.673825,0 -0.740649,0.740651 -0.74065,1.933174 0,2.673825 l 7.770804,7.770805 -7.770804,7.770805 c -0.740649,0.740645 -0.74065,1.933175 -10e-7,2.673827 0.74065,0.74065 1.933177,0.740643 2.673825,0 L 22,24.673823 29.770805,32.44463 c 0.740649,0.74065 1.933177,0.740643 2.673825,0 0.740649,-0.740652 0.74065,-1.933175 0,-2.673827 l -7.770805,-7.770805 7.770805,-7.770805 c 0.740643,-0.740644 0.74065,-1.933175 0,-2.673825 z" />
  </g>
</svg>
