<?xml version="1.0" encoding="UTF-8" standalone="no"?>
<svg
   xmlns:dc="http://purl.org/dc/elements/1.1/"
   xmlns:cc="http://creativecommons.org/ns#"
   xmlns:rdf="http://www.w3.org/1999/02/22-rdf-syntax-ns#"
   xmlns:svg="http://www.w3.org/2000/svg"
   xmlns="http://www.w3.org/2000/svg"
   xmlns:xlink="http://www.w3.org/1999/xlink"
   xmlns:sodipodi="http://sodipodi.sourceforge.net/DTD/sodipodi-0.dtd"
   xmlns:inkscape="http://www.inkscape.org/namespaces/inkscape"
   width="22"
   height="22"
   viewBox="0 0 22 22"
   version="1.1"
   id="svg6374"
   inkscape:version="1.0.2 (e86c870879, 2021-01-15)"
   sodipodi:docname="close-active.svg">
  <defs
     id="defs6368">
    <linearGradient
       inkscape:collect="always"
       xlink:href="#linearGradient864"
       id="linearGradient1433"
       gradientUnits="userSpaceOnUse"
       x1="32"
       y1="0"
       x2="32"
       y2="64"
       gradientTransform="scale(0.34375)" />
    <linearGradient
       inkscape:collect="always"
       id="linearGradient864">
      <stop
         style="stop-color:#ed5e84;stop-opacity:1"
         offset="0"
         id="stop860" />
      <stop
         style="stop-color:#d74168;stop-opacity:1"
         offset="1"
         id="stop862" />
    </linearGradient>
    <linearGradient
       inkscape:collect="always"
       xlink:href="#linearGradient858"
       id="linearGradient1439"
       x1="32"
       y1="104"
       x2="32"
       y2="160"
       gradientUnits="userSpaceOnUse"
       gradientTransform="matrix(0.34375,0,0,0.34375,-1.691005e-7,-34.375)" />
    <linearGradient
       inkscape:collect="always"
       id="linearGradient858">
      <stop
         style="stop-color:#d4355f;stop-opacity:1"
         offset="0"
         id="stop854" />
      <stop
         style="stop-color:#f288a3;stop-opacity:1"
         offset="1"
         id="stop856" />
    </linearGradient>
  </defs>
  <sodipodi:namedview
     id="base"
     pagecolor="#cecece"
     bordercolor="#666666"
     borderopacity="1.0"
     inkscape:pageopacity="0"
     inkscape:pageshadow="2"
     inkscape:zoom="6.7060839"
     inkscape:cx="30.761102"
     inkscape:cy="22.733627"
     inkscape:document-units="px"
     inkscape:current-layer="layer1"
     inkscape:document-rotation="0"
     showgrid="false"
     units="px"
     inkscape:window-width="1920"
     inkscape:window-height="1006"
     inkscape:window-x="0"
     inkscape:window-y="0"
     inkscape:window-maximized="1" />
  <metadata
     id="metadata6371">
    <rdf:RDF>
      <cc:Work
         rdf:about="">
        <dc:format>image/svg+xml</dc:format>
        <dc:type
           rdf:resource="http://purl.org/dc/dcmitype/StillImage" />
        <dc:title></dc:title>
      </cc:Work>
    </rdf:RDF>
  </metadata>
  <g
     inkscape:label="Layer 1"
     inkscape:groupmode="layer"
     id="layer1">
    <circle
       style="fill:url(#linearGradient1433);fill-opacity:1;stroke:none;stroke-width:0;stroke-linecap:round;stroke-linejoin:round;stroke-miterlimit:4;stroke-dasharray:none;paint-order:normal"
       id="path1011-9-1"
       cx="11"
       cy="11"
       r="11" />
    <circle
       style="fill:url(#linearGradient1439);fill-opacity:1;stroke:none;stroke-width:0;stroke-linecap:round;stroke-linejoin:round;stroke-miterlimit:4;stroke-dasharray:none;paint-order:normal"
       id="path1011-94"
       cx="11"
       cy="11"
       r="9.625" />
    <path
       id="rect1295-2-7"
       style="fill:#b5264b;fill-opacity:1;stroke:#d74168;stroke-width:0;stroke-linecap:round;stroke-linejoin:round;stroke-miterlimit:4;stroke-dasharray:none;stroke-opacity:1;paint-order:normal"
       d="m 16.78356,5.5602144 c -0.538618,-0.5386185 -1.405851,-0.5386185 -1.944471,0 L 11.000001,9.3993038 7.1609103,5.5602144 c -0.5386178,-0.5386185 -1.4058529,-0.538615 -1.9444697,0 -0.5386167,0.5386184 -0.5386163,1.4058481 1.4e-6,1.9444665 L 9.0555327,11.343774 5.216442,15.182863 c -0.5386191,0.538618 -0.5386191,1.405852 -1.4e-6,1.94447 0.5386178,0.538618 1.4058502,0.538618 1.9444693,-3e-6 l 3.8390911,-3.83909 3.839091,3.83909 c 0.538616,0.538618 1.405849,0.538618 1.944466,3e-6 0.538617,-0.538618 0.538619,-1.405852 2e-6,-1.94447 l -3.839091,-3.839089 3.839088,-3.8390896 c 0.538621,-0.5386219 0.538621,-1.4058516 3e-6,-1.94447 z" />
    <path
       id="rect1109-1-0-8"
       style="fill:#fbfcfd;fill-opacity:1;stroke:#d74168;stroke-width:0;stroke-linecap:round;stroke-linejoin:round;stroke-miterlimit:4;stroke-dasharray:none;stroke-opacity:1;paint-order:normal"
       d="m 16.222315,5.7776844 c -0.370327,-0.3703219 -0.966591,-0.3703219 -1.336912,0 L 11,9.6630875 7.1145979,5.7776844 c -0.3703247,-0.3703254 -0.9665889,-0.3703219 -1.3369125,0 -0.370324,0.3703252 -0.370325,0.9665871 0,1.3369125 L 9.6630875,11 5.7776854,14.885403 c -0.370324,0.370321 -0.370325,0.966587 -4e-7,1.336912 0.370325,0.370325 0.9665889,0.370321 1.3369125,0 L 11,12.336912 l 3.885403,3.885403 c 0.370324,0.370325 0.966588,0.370321 1.336912,0 0.370324,-0.370325 0.370325,-0.966587 0,-1.336912 L 12.336912,11 16.222315,7.1145969 c 0.370321,-0.3703219 0.370325,-0.9665873 0,-1.3369125 z" />
  </g>
</svg>
