<?xml version="1.0" encoding="UTF-8" standalone="no"?>
<svg
   xmlns:dc="http://purl.org/dc/elements/1.1/"
   xmlns:cc="http://creativecommons.org/ns#"
   xmlns:rdf="http://www.w3.org/1999/02/22-rdf-syntax-ns#"
   xmlns:svg="http://www.w3.org/2000/svg"
   xmlns="http://www.w3.org/2000/svg"
   xmlns:xlink="http://www.w3.org/1999/xlink"
   xmlns:sodipodi="http://sodipodi.sourceforge.net/DTD/sodipodi-0.dtd"
   xmlns:inkscape="http://www.inkscape.org/namespaces/inkscape"
   width="22"
   height="22"
   viewBox="0 0 22 22"
   version="1.1"
   id="svg6374"
   inkscape:version="1.0.2 (e86c870879, 2021-01-15)"
   sodipodi:docname="close-hover.svg">
  <defs
     id="defs6368">
    <linearGradient
       inkscape:collect="always"
       xlink:href="#linearGradient906"
       id="linearGradient1067"
       x1="32"
       y1="0"
       x2="32"
       y2="64"
       gradientUnits="userSpaceOnUse"
       gradientTransform="scale(0.34375)" />
    <linearGradient
       inkscape:collect="always"
       id="linearGradient906">
      <stop
         style="stop-color:#d74168;stop-opacity:1"
         offset="0"
         id="stop902" />
      <stop
         style="stop-color:#d74168;stop-opacity:1"
         offset="1"
         id="stop904" />
    </linearGradient>
    <radialGradient
       inkscape:collect="always"
       xlink:href="#linearGradient900"
       id="radialGradient1077"
       cx="32"
       cy="32"
       fx="32"
       fy="32"
       r="28"
       gradientUnits="userSpaceOnUse"
       gradientTransform="matrix(0.58928575,0,0,0.58928581,-7.8571447,-7.857144)" />
    <linearGradient
       inkscape:collect="always"
       id="linearGradient900">
      <stop
         style="stop-color:#f288a3;stop-opacity:1"
         offset="0"
         id="stop896" />
      <stop
         style="stop-color:#d94c71;stop-opacity:1"
         offset="1"
         id="stop898" />
    </linearGradient>
  </defs>
  <sodipodi:namedview
     id="base"
     pagecolor="#cecece"
     bordercolor="#666666"
     borderopacity="1.0"
     inkscape:pageopacity="0"
     inkscape:pageshadow="2"
     inkscape:zoom="7.7201302"
     inkscape:cx="24.58762"
     inkscape:cy="29.158466"
     inkscape:document-units="px"
     inkscape:current-layer="layer1"
     inkscape:document-rotation="0"
     showgrid="false"
     units="px"
     inkscape:window-width="1920"
     inkscape:window-height="1006"
     inkscape:window-x="0"
     inkscape:window-y="0"
     inkscape:window-maximized="1" />
  <metadata
     id="metadata6371">
    <rdf:RDF>
      <cc:Work
         rdf:about="">
        <dc:format>image/svg+xml</dc:format>
        <dc:type
           rdf:resource="http://purl.org/dc/dcmitype/StillImage" />
        <dc:title></dc:title>
      </cc:Work>
    </rdf:RDF>
  </metadata>
  <g
     inkscape:label="Layer 1"
     inkscape:groupmode="layer"
     id="layer1">
    <circle
       style="fill:url(#linearGradient1067);fill-opacity:1;stroke:none;stroke-width:0;stroke-linecap:round;stroke-linejoin:round;stroke-miterlimit:4;stroke-dasharray:none;paint-order:normal"
       id="path1011-9"
       cx="11"
       cy="11"
       r="11" />
    <circle
       style="fill:url(#radialGradient1077);fill-opacity:1;stroke:none;stroke-width:0;stroke-linecap:round;stroke-linejoin:round;stroke-miterlimit:4;stroke-dasharray:none;paint-order:normal"
       id="path1011"
       cx="11"
       cy="11"
       r="9.625" />
    <path
       id="rect1295-2"
       style="fill:#b5264b;fill-opacity:1;stroke:#d74168;stroke-width:0;stroke-linecap:round;stroke-linejoin:round;stroke-miterlimit:4;stroke-dasharray:none;stroke-opacity:1;paint-order:normal"
       d="m 16.78356,5.560213 c -0.538618,-0.5386181 -1.405851,-0.5386181 -1.944471,0 L 11.000001,9.399302 7.1609103,5.560213 c -0.5386178,-0.5386181 -1.4058529,-0.538615 -1.9444697,0 -0.5386167,0.5386184 -0.5386163,1.4058481 1.4e-6,1.9444665 l 3.8390907,3.8390925 -3.8390907,3.83909 c -0.5386191,0.538618 -0.5386191,1.405851 -1.4e-6,1.94447 0.5386178,0.538618 1.4058502,0.538618 1.9444693,-4e-6 l 3.8390911,-3.839089 3.839091,3.83909 c 0.538617,0.538618 1.405849,0.538618 1.944466,3e-6 0.538617,-0.538619 0.538619,-1.405852 2e-6,-1.94447 l -3.839091,-3.83909 3.839088,-3.839089 c 0.538621,-0.5386219 0.538621,-1.4058516 3e-6,-1.94447 z" />
    <path
       id="rect1109-1-0"
       style="fill:#fbfcfd;fill-opacity:1;stroke:#d74168;stroke-width:0;stroke-linecap:round;stroke-linejoin:round;stroke-miterlimit:4;stroke-dasharray:none;stroke-opacity:1;paint-order:normal"
       d="m 16.222315,5.777684 c -0.370327,-0.3703219 -0.966591,-0.3703219 -1.336912,0 L 11,9.6630866 7.1145979,5.777684 c -0.3703247,-0.3703253 -0.9665889,-0.3703219 -1.3369125,0 -0.370324,0.3703254 -0.370325,0.9665871 0,1.3369125 l 3.8854021,3.8854025 -3.8854021,3.885403 c -0.370324,0.370322 -0.370325,0.966587 -4e-7,1.336913 0.370325,0.370325 0.9665889,0.370321 1.3369125,0 L 11,12.336912 l 3.885403,3.885403 c 0.370324,0.370325 0.966588,0.370321 1.336912,0 0.370324,-0.370326 0.370325,-0.966587 0,-1.336913 l -3.885403,-3.885403 3.885403,-3.8854025 c 0.370321,-0.3703219 0.370325,-0.9665872 0,-1.3369125 z" />
  </g>
</svg>
