<?xml version="1.0" encoding="UTF-8" standalone="no"?>
<svg
   xmlns:dc="http://purl.org/dc/elements/1.1/"
   xmlns:cc="http://creativecommons.org/ns#"
   xmlns:rdf="http://www.w3.org/1999/02/22-rdf-syntax-ns#"
   xmlns:svg="http://www.w3.org/2000/svg"
   xmlns="http://www.w3.org/2000/svg"
   xmlns:xlink="http://www.w3.org/1999/xlink"
   xmlns:sodipodi="http://sodipodi.sourceforge.net/DTD/sodipodi-0.dtd"
   xmlns:inkscape="http://www.inkscape.org/namespaces/inkscape"
   width="22"
   height="22"
   viewBox="0 0 22 22"
   version="1.1"
   id="svg6374"
   inkscape:version="1.0.2 (e86c870879, 2021-01-15)"
   sodipodi:docname="maximize-backdrop-hover.svg">
  <defs
     id="defs6368">
    <linearGradient
       inkscape:collect="always"
       xlink:href="#linearGradient906-55"
       id="linearGradient2378"
       gradientUnits="userSpaceOnUse"
       gradientTransform="matrix(0.34375,0,0,0.34375,-1.3058471e-7,-3.6810874e-6)"
       x1="32"
       y1="0"
       x2="32"
       y2="64" />
    <linearGradient
       inkscape:collect="always"
       id="linearGradient906-55">
      <stop
         style="stop-color:#1ab7bc;stop-opacity:1"
         offset="0"
         id="stop902-4" />
      <stop
         style="stop-color:#19b3b8;stop-opacity:1"
         offset="1"
         id="stop904-7" />
    </linearGradient>
  </defs>
  <sodipodi:namedview
     id="base"
     pagecolor="#cecece"
     bordercolor="#666666"
     borderopacity="1.0"
     inkscape:pageopacity="0"
     inkscape:pageshadow="2"
     inkscape:zoom="6.7060839"
     inkscape:cx="30.761102"
     inkscape:cy="22.733627"
     inkscape:document-units="px"
     inkscape:current-layer="layer1"
     inkscape:document-rotation="0"
     showgrid="false"
     units="px"
     inkscape:window-width="1920"
     inkscape:window-height="1006"
     inkscape:window-x="0"
     inkscape:window-y="0"
     inkscape:window-maximized="1" />
  <metadata
     id="metadata6371">
    <rdf:RDF>
      <cc:Work
         rdf:about="">
        <dc:format>image/svg+xml</dc:format>
        <dc:type
           rdf:resource="http://purl.org/dc/dcmitype/StillImage" />
        <dc:title></dc:title>
      </cc:Work>
    </rdf:RDF>
  </metadata>
  <g
     inkscape:label="Layer 1"
     inkscape:groupmode="layer"
     id="layer1">
    <circle
       style="fill:url(#linearGradient2378);fill-opacity:1;stroke:none;stroke-width:0;stroke-linecap:round;stroke-linejoin:round;stroke-miterlimit:4;stroke-dasharray:none;paint-order:normal"
       id="path1011-9-8-8"
       cx="11"
       cy="11"
       r="11" />
    <circle
       style="fill:#1fd9e0;fill-opacity:1;stroke:none;stroke-width:0;stroke-linecap:round;stroke-linejoin:round;stroke-miterlimit:4;stroke-dasharray:none;paint-order:normal"
       id="path1011-92-8"
       cx="11"
       cy="11"
       r="9.625" />
    <path
       id="rect1295-9-1-7-6-5"
       style="fill:#94f5f5;fill-opacity:1;stroke:#d74168;stroke-width:0;stroke-linecap:round;stroke-linejoin:round;stroke-miterlimit:4;stroke-dasharray:none;stroke-opacity:1;paint-order:normal"
       d="m 11.000341,7.4329025 c -0.351471,0 -0.703512,0.1341862 -0.972823,0.4035144 L 5.216465,12.648391 c -0.5386184,0.538653 -0.5386184,1.405738 0,1.944394 0.5386322,0.538653 1.4063431,0.538653 1.9449685,0 l 3.8389075,-3.839106 3.8389,3.839106 c 0.538625,0.538653 1.405663,0.538653 1.944288,0 0.538625,-0.538656 0.538625,-1.405741 0,-1.944394 L 11.97248,7.8364169 C 11.703172,7.5670887 11.351801,7.4329025 11.000341,7.4329025 Z" />
    <path
       id="rect1111-8-2-2-6-9-91-0"
       style="fill:#6e6e6e;fill-opacity:1;stroke:#d74168;stroke-width:0;stroke-linecap:round;stroke-linejoin:round;stroke-miterlimit:4;stroke-dasharray:none;stroke-opacity:1;paint-order:normal"
       d="m 10.999667,7.7767796 c -0.24164,0 -0.482862,0.092795 -0.668016,0.2779529 L 5.7777297,12.608746 c -0.3703047,0.370315 -0.3703047,0.966419 0,1.336734 0.3703082,0.370311 0.9663947,0.370311 1.3367028,0 l 3.8852345,-3.885317 3.88523,3.885317 c 0.370305,0.370311 0.967069,0.370311 1.337374,0 0.370305,-0.370315 0.370305,-0.966419 0,-1.336734 L 11.668354,8.0547325 C 11.4832,7.869575 11.241299,7.7767796 10.999667,7.7767796 Z" />
  </g>
</svg>
