<?xml version="1.0" encoding="UTF-8" standalone="no"?>
<svg
   xmlns:dc="http://purl.org/dc/elements/1.1/"
   xmlns:cc="http://creativecommons.org/ns#"
   xmlns:rdf="http://www.w3.org/1999/02/22-rdf-syntax-ns#"
   xmlns:svg="http://www.w3.org/2000/svg"
   xmlns="http://www.w3.org/2000/svg"
   xmlns:xlink="http://www.w3.org/1999/xlink"
   xmlns:sodipodi="http://sodipodi.sourceforge.net/DTD/sodipodi-0.dtd"
   xmlns:inkscape="http://www.inkscape.org/namespaces/inkscape"
   width="22"
   height="22"
   viewBox="0 0 22 22"
   version="1.1"
   id="svg6374"
   inkscape:version="1.0.2 (e86c870879, 2021-01-15)"
   sodipodi:docname="minimize-active.svg">
  <defs
     id="defs6368">
    <linearGradient
       inkscape:collect="always"
       xlink:href="#linearGradient1773-2"
       id="linearGradient2565"
       gradientUnits="userSpaceOnUse"
       gradientTransform="matrix(0.34375,0,0,0.34375,-3.6810874e-6,0)"
       x1="32"
       y1="0"
       x2="32"
       y2="64" />
    <linearGradient
       inkscape:collect="always"
       id="linearGradient1773-2">
      <stop
         style="stop-color:#7b7bef;stop-opacity:1"
         offset="0"
         id="stop1769-54" />
      <stop
         style="stop-color:#5c5ce5;stop-opacity:1"
         offset="1"
         id="stop1771-0" />
    </linearGradient>
    <linearGradient
       inkscape:collect="always"
       xlink:href="#linearGradient899-3"
       id="linearGradient2567"
       gradientUnits="userSpaceOnUse"
       x1="132"
       y1="104"
       x2="132"
       y2="160"
       gradientTransform="matrix(0.34375,0,0,0.34375,-34.375004,-34.375)" />
    <linearGradient
       inkscape:collect="always"
       id="linearGradient899-3">
      <stop
         style="stop-color:#5050e2;stop-opacity:1"
         offset="0"
         id="stop895-0" />
      <stop
         style="stop-color:#9696f3;stop-opacity:1"
         offset="1"
         id="stop897-30" />
    </linearGradient>
  </defs>
  <sodipodi:namedview
     id="base"
     pagecolor="#cecece"
     bordercolor="#666666"
     borderopacity="1.0"
     inkscape:pageopacity="0"
     inkscape:pageshadow="2"
     inkscape:zoom="6.7060839"
     inkscape:cx="30.761102"
     inkscape:cy="22.733627"
     inkscape:document-units="px"
     inkscape:current-layer="layer1"
     inkscape:document-rotation="0"
     showgrid="false"
     units="px"
     inkscape:window-width="1920"
     inkscape:window-height="1006"
     inkscape:window-x="0"
     inkscape:window-y="0"
     inkscape:window-maximized="1" />
  <metadata
     id="metadata6371">
    <rdf:RDF>
      <cc:Work
         rdf:about="">
        <dc:format>image/svg+xml</dc:format>
        <dc:type
           rdf:resource="http://purl.org/dc/dcmitype/StillImage" />
        <dc:title></dc:title>
      </cc:Work>
    </rdf:RDF>
  </metadata>
  <g
     inkscape:label="Layer 1"
     inkscape:groupmode="layer"
     id="layer1">
    <circle
       style="fill:url(#linearGradient2565);fill-opacity:1;stroke:none;stroke-width:0;stroke-linecap:round;stroke-linejoin:round;stroke-miterlimit:4;stroke-dasharray:none;paint-order:normal"
       id="path1011-9-8-3-3"
       cx="11"
       cy="11"
       r="11" />
    <circle
       style="fill:url(#linearGradient2567);fill-opacity:1;stroke:none;stroke-width:0;stroke-linecap:round;stroke-linejoin:round;stroke-miterlimit:4;stroke-dasharray:none;paint-order:normal"
       id="path1011-92-9-1"
       cx="11"
       cy="11"
       r="9.625" />
    <path
       id="rect1295-9-1-7-6-4-7"
       style="opacity:0.7;fill:#2828d7;fill-opacity:1;stroke:#d74168;stroke-width:0;stroke-linecap:round;stroke-linejoin:round;stroke-miterlimit:4;stroke-dasharray:none;stroke-opacity:1;paint-order:normal"
       d="m 11.000336,14.996778 c -0.35147,0 -0.703511,-0.134187 -0.972822,-0.403514 L 5.2164609,9.7812898 c -0.5386184,-0.5386535 -0.5386184,-1.4057386 0,-1.9443948 0.5386322,-0.5386529 1.4063431,-0.5386529 1.9449685,0 l 3.8389066,3.839106 3.838901,-3.839106 c 0.538626,-0.5386529 1.405662,-0.5386529 1.944288,0 0.538625,0.5386562 0.538625,1.4057413 0,1.9443948 l -4.81105,4.8119742 c -0.269307,0.269327 -0.620679,0.403514 -0.972139,0.403514 z" />
    <path
       id="rect1111-8-2-2-6-9-91-8-5"
       style="fill:#fdfcfb;fill-opacity:1;stroke:#d74168;stroke-width:0;stroke-linecap:round;stroke-linejoin:round;stroke-miterlimit:4;stroke-dasharray:none;stroke-opacity:1;paint-order:normal"
       d="m 10.999663,14.223093 c -0.241639,0 -0.482863,-0.0928 -0.668017,-0.277957 L 5.7777256,9.3911226 c -0.3703047,-0.3703147 -0.3703047,-0.9664185 0,-1.3367335 0.3703081,-0.3703116 0.9663947,-0.3703116 1.3367028,0 l 3.8852346,3.8853169 3.885231,-3.885317 c 0.370305,-0.3703115 0.967068,-0.3703115 1.337372,0 0.370305,0.370315 0.370305,0.9664188 0,1.3367336 l -4.553917,4.5540134 c -0.185154,0.185158 -0.427054,0.277957 -0.668686,0.277957 z" />
  </g>
</svg>
