<?xml version="1.0" encoding="UTF-8" standalone="no"?>
<svg
   xmlns:dc="http://purl.org/dc/elements/1.1/"
   xmlns:cc="http://creativecommons.org/ns#"
   xmlns:rdf="http://www.w3.org/1999/02/22-rdf-syntax-ns#"
   xmlns:svg="http://www.w3.org/2000/svg"
   xmlns="http://www.w3.org/2000/svg"
   xmlns:xlink="http://www.w3.org/1999/xlink"
   xmlns:sodipodi="http://sodipodi.sourceforge.net/DTD/sodipodi-0.dtd"
   xmlns:inkscape="http://www.inkscape.org/namespaces/inkscape"
   width="22"
   height="22"
   viewBox="0 0 22 22"
   version="1.1"
   id="svg6374"
   inkscape:version="1.0.2 (e86c870879, 2021-01-15)"
   sodipodi:docname="restore-active.svg">
  <defs
     id="defs6368">
    <linearGradient
       inkscape:collect="always"
       xlink:href="#linearGradient1773-4"
       id="linearGradient2851"
       gradientUnits="userSpaceOnUse"
       gradientTransform="matrix(0.34375,0,0,0.34375,3.4618379e-6,0)"
       x1="32"
       y1="0"
       x2="32"
       y2="64" />
    <linearGradient
       inkscape:collect="always"
       id="linearGradient1773-4">
      <stop
         style="stop-color:#049ca4;stop-opacity:1"
         offset="0"
         id="stop1769-5" />
      <stop
         style="stop-color:#0b8489;stop-opacity:1"
         offset="1"
         id="stop1771-2" />
    </linearGradient>
    <linearGradient
       inkscape:collect="always"
       xlink:href="#linearGradient899-9"
       id="linearGradient2853"
       gradientUnits="userSpaceOnUse"
       x1="132"
       y1="104"
       x2="132"
       y2="160"
       gradientTransform="matrix(0.34375,0,0,0.34375,-34.374996,-34.375)" />
    <linearGradient
       inkscape:collect="always"
       id="linearGradient899-9">
      <stop
         style="stop-color:#0a8a8f;stop-opacity:1"
         offset="0"
         id="stop895-3" />
      <stop
         style="stop-color:#04b4be;stop-opacity:1"
         offset="1"
         id="stop897-7" />
    </linearGradient>
  </defs>
  <sodipodi:namedview
     id="base"
     pagecolor="#cecece"
     bordercolor="#666666"
     borderopacity="1.0"
     inkscape:pageopacity="0"
     inkscape:pageshadow="2"
     inkscape:zoom="6.7060839"
     inkscape:cx="30.761102"
     inkscape:cy="22.733627"
     inkscape:document-units="px"
     inkscape:current-layer="layer1"
     inkscape:document-rotation="0"
     showgrid="false"
     units="px"
     inkscape:window-width="1920"
     inkscape:window-height="1006"
     inkscape:window-x="0"
     inkscape:window-y="0"
     inkscape:window-maximized="1" />
  <metadata
     id="metadata6371">
    <rdf:RDF>
      <cc:Work
         rdf:about="">
        <dc:format>image/svg+xml</dc:format>
        <dc:type
           rdf:resource="http://purl.org/dc/dcmitype/StillImage" />
        <dc:title></dc:title>
      </cc:Work>
    </rdf:RDF>
  </metadata>
  <g
     inkscape:label="Layer 1"
     inkscape:groupmode="layer"
     id="layer1">
    <circle
       style="fill:url(#linearGradient2851);fill-opacity:1;stroke:none;stroke-width:0;stroke-linecap:round;stroke-linejoin:round;stroke-miterlimit:4;stroke-dasharray:none;paint-order:normal"
       id="path1011-9-8-3-1"
       cx="11"
       cy="11"
       r="11" />
    <circle
       style="fill:url(#linearGradient2853);fill-opacity:1;stroke:none;stroke-width:0;stroke-linecap:round;stroke-linejoin:round;stroke-miterlimit:4;stroke-dasharray:none;paint-order:normal"
       id="path1011-92-9-10"
       cx="11"
       cy="11"
       r="9.625" />
    <path
       id="rect1295-9-1-7-2-1-1"
       style="opacity:0.9;fill:#094649;fill-opacity:1;stroke:#d74168;stroke-width:0;stroke-linecap:round;stroke-linejoin:round;stroke-miterlimit:4;stroke-dasharray:none;stroke-opacity:1;paint-order:normal"
       d="m 11.000619,5.15625 c -0.351484,0 -0.703553,0.134176 -0.972847,0.403504 l -4.8111595,4.81183 C 5.0819656,10.506248 4.9804562,10.66133 4.91315,10.826784 4.879462,10.909514 4.854781,10.994665 4.837937,11.081239 4.821093,11.168019 4.8125,11.255681 4.8125,11.34375 c 0,0.08786 0.0086,0.175268 0.025437,0.261841 0.050429,0.259968 0.1765156,0.508163 0.378675,0.710329 l 4.81116,4.811826 c 0.269363,0.269328 0.621432,0.403504 0.972916,0.403504 0.35145,0 0.702178,-0.134176 0.97147,-0.403504 l 4.811146,-4.811826 c 0.06734,-0.06733 0.126741,-0.139876 0.177238,-0.216188 0.101132,-0.152817 0.167819,-0.320757 0.201437,-0.494141 0.01685,-0.08657 0.02544,-0.173982 0.02544,-0.261841 0,-0.08807 -0.0086,-0.175731 -0.02544,-0.262511 -0.01684,-0.08657 -0.04153,-0.171728 -0.07521,-0.254454 -0.06731,-0.165454 -0.168816,-0.320537 -0.303462,-0.455201 L 11.972159,5.559754 C 11.702865,5.290426 11.352138,5.15625 11.000688,5.15625 Z m 0,3.32068 2.866105,2.86682 -2.866105,2.866824 -2.8668409,-2.866824 z" />
    <path
       id="rect1111-8-2-2-6-9-91-7-7-2-3"
       style="fill:#f8f6f7;fill-opacity:1;stroke:#d74168;stroke-width:0;stroke-linecap:round;stroke-linejoin:round;stroke-miterlimit:4;stroke-dasharray:none;stroke-opacity:1;paint-order:normal"
       d="M 10.998969,5.5 C 10.757347,5.5 10.51676,5.592799 10.33165,5.7779562 L 5.7818096,10.327941 c 0,0.0014 -0.00344,0.0021 -0.00413,0.0035 v 6.87e-4 c -0.046131,0.04618 -0.0869,0.09538 -0.1215156,0.147706 -1.065e-4,1.41e-4 1.031e-4,3.44e-4 0,6.88e-4 -0.034581,0.05231 -0.064213,0.107126 -0.087281,0.163817 -6.54e-5,1.83e-4 6.87e-5,3.44e-4 0,6.88e-4 -0.023031,0.05669 -0.040184,0.115249 -0.0517,0.174559 -3.1e-5,2.1e-4 3.44e-5,3.44e-4 0,6.87e-4 C 5.5058438,10.87944 5.5,10.939889 5.5,11.000065 c 0,2.24e-4 0,3.44e-4 0,6.88e-4 3.44e-5,0.06018 0.00585,0.119962 0.017531,0.179262 3.44e-5,2.2e-4 -3.43e-5,3.44e-4 0,6.87e-4 0.011688,0.05931 0.028531,0.117887 0.0517,0.17456 6.88e-5,1.99e-4 -1.031e-4,3.44e-4 0,6.88e-4 0.023031,0.05668 0.052663,0.111523 0.087279,0.163817 1.032e-4,1.69e-4 -1.031e-4,3.44e-4 0,6.88e-4 0.03465,0.05231 0.07535,0.10154 0.1215157,0.147706 1.375e-4,1.27e-4 -1.375e-4,6.88e-4 0,6.88e-4 0,0.0014 0.00344,0.0021 0.00413,0.0034 l 4.5498393,4.549988 c 0.18511,0.185157 0.425701,0.277953 0.667323,0.277953 0.241669,0 0.483601,-0.0928 0.66871,-0.277953 l 4.549841,-4.549988 0.0041,-0.004 c 0.04616,-0.04616 0.08686,-0.0954 0.121515,-0.147706 1.03e-4,-1.65e-4 -1.03e-4,-6.88e-4 0,-6.88e-4 0.03461,-0.0523 0.06418,-0.107136 0.08728,-0.163817 1.02e-4,-1.99e-4 -6.9e-5,-3.44e-4 0,-6.88e-4 0.02304,-0.05668 0.04015,-0.115255 0.0517,-0.174559 3.3e-5,-2.2e-4 -3.5e-5,-3.44e-4 0,-6.87e-4 0.01169,-0.0593 0.01754,-0.119083 0.01754,-0.179263 0,-0.06061 -0.0059,-0.12155 -0.01754,-0.181273 -0.01169,-0.05931 -0.02853,-0.117875 -0.0517,-0.174559 -6.9e-5,-1.83e-4 6.8e-5,-3.44e-4 0,-6.88e-4 -0.02303,-0.0567 -0.0527,-0.111506 -0.08728,-0.163821 -1.03e-4,-1.41e-4 1.03e-4,-3.44e-4 0,-6.87e-4 -0.03461,-0.05232 -0.07539,-0.10152 -0.121515,-0.147703 l -0.0041,-0.004 -4.549841,-4.5499885 C 11.482742,5.5929466 11.240811,5.5001479 10.99914,5.5001479 Z m 0,2.2833869 L 14.215524,11 10.998969,14.216614 7.7831566,11 Z" />
  </g>
</svg>
