<?xml version="1.0" encoding="UTF-8" standalone="no"?>
<svg
   xmlns:dc="http://purl.org/dc/elements/1.1/"
   xmlns:cc="http://creativecommons.org/ns#"
   xmlns:rdf="http://www.w3.org/1999/02/22-rdf-syntax-ns#"
   xmlns:svg="http://www.w3.org/2000/svg"
   xmlns="http://www.w3.org/2000/svg"
   xmlns:xlink="http://www.w3.org/1999/xlink"
   xmlns:sodipodi="http://sodipodi.sourceforge.net/DTD/sodipodi-0.dtd"
   xmlns:inkscape="http://www.inkscape.org/namespaces/inkscape"
   width="22"
   height="22"
   viewBox="0 0 22 22"
   version="1.1"
   id="svg6374"
   inkscape:version="1.0.2 (e86c870879, 2021-01-15)"
   sodipodi:docname="restore-hover.svg">
  <defs
     id="defs6368">
    <linearGradient
       inkscape:collect="always"
       xlink:href="#linearGradient1773"
       id="linearGradient2849"
       gradientUnits="userSpaceOnUse"
       gradientTransform="matrix(0.34375,0,0,0.34375,3.2933617e-6,0)"
       x1="32"
       y1="0"
       x2="32"
       y2="64" />
    <linearGradient
       inkscape:collect="always"
       id="linearGradient1773">
      <stop
         style="stop-color:#0a8f94;stop-opacity:1"
         offset="0"
         id="stop1769" />
      <stop
         style="stop-color:#0a8f94;stop-opacity:1"
         offset="1"
         id="stop1771" />
    </linearGradient>
    <radialGradient
       inkscape:collect="always"
       xlink:href="#linearGradient899"
       id="radialGradient1077-8-4"
       cx="32"
       cy="32"
       fx="32"
       fy="32"
       r="28"
       gradientUnits="userSpaceOnUse"
       gradientTransform="matrix(0.58928575,0,0,0.58928581,-7.8571419,-7.8571426)" />
    <linearGradient
       inkscape:collect="always"
       id="linearGradient899">
      <stop
         style="stop-color:#0bb1bc;stop-opacity:1"
         offset="0"
         id="stop895" />
      <stop
         style="stop-color:#0a979e;stop-opacity:1"
         offset="1"
         id="stop897" />
    </linearGradient>
  </defs>
  <sodipodi:namedview
     id="base"
     pagecolor="#cecece"
     bordercolor="#666666"
     borderopacity="1.0"
     inkscape:pageopacity="0"
     inkscape:pageshadow="2"
     inkscape:zoom="6.7060839"
     inkscape:cx="30.761102"
     inkscape:cy="22.733627"
     inkscape:document-units="px"
     inkscape:current-layer="layer1"
     inkscape:document-rotation="0"
     showgrid="false"
     units="px"
     inkscape:window-width="1920"
     inkscape:window-height="1006"
     inkscape:window-x="0"
     inkscape:window-y="0"
     inkscape:window-maximized="1" />
  <metadata
     id="metadata6371">
    <rdf:RDF>
      <cc:Work
         rdf:about="">
        <dc:format>image/svg+xml</dc:format>
        <dc:type
           rdf:resource="http://purl.org/dc/dcmitype/StillImage" />
        <dc:title></dc:title>
      </cc:Work>
    </rdf:RDF>
  </metadata>
  <g
     inkscape:label="Layer 1"
     inkscape:groupmode="layer"
     id="layer1">
    <circle
       style="fill:url(#linearGradient2849);fill-opacity:1;stroke:none;stroke-width:0;stroke-linecap:round;stroke-linejoin:round;stroke-miterlimit:4;stroke-dasharray:none;paint-order:normal"
       id="path1011-9-8-0"
       cx="11"
       cy="11"
       r="11" />
    <circle
       style="fill:url(#radialGradient1077-8-4);fill-opacity:1;stroke:none;stroke-width:0;stroke-linecap:round;stroke-linejoin:round;stroke-miterlimit:4;stroke-dasharray:none;paint-order:normal"
       id="path1011-92-2"
       cx="11"
       cy="11"
       r="9.625" />
    <path
       id="rect1295-9-1-7-2-1"
       style="opacity:0.9;fill:#0a6166;fill-opacity:1;stroke:#d74168;stroke-width:0;stroke-linecap:round;stroke-linejoin:round;stroke-miterlimit:4;stroke-dasharray:none;stroke-opacity:1;paint-order:normal"
       d="m 11.000619,5.15625 c -0.351484,0 -0.703553,0.1341752 -0.972847,0.4035034 L 5.2166125,10.371582 c -0.1346469,0.134663 -0.2361563,0.289747 -0.3034625,0.4552 -0.033688,0.08273 -0.058369,0.16788 -0.075213,0.254456 -0.016844,0.08678 -0.025437,0.17444 -0.025437,0.262512 0,0.08786 0.0086,0.175265 0.025437,0.261841 0.050429,0.259966 0.1765156,0.508161 0.378675,0.710327 l 4.81116,4.811827 c 0.269363,0.269328 0.621432,0.403504 0.972916,0.403504 0.35145,0 0.702178,-0.134176 0.97147,-0.403504 l 4.811146,-4.811827 c 0.06734,-0.06733 0.126741,-0.139874 0.177238,-0.216187 0.101132,-0.152818 0.167819,-0.320756 0.201437,-0.49414 0.01685,-0.08658 0.02544,-0.173982 0.02544,-0.261841 0,-0.08807 -0.0086,-0.175733 -0.02544,-0.262512 -0.01684,-0.08658 -0.04153,-0.171729 -0.07521,-0.254456 -0.06731,-0.165453 -0.168816,-0.320536 -0.303462,-0.4552 L 11.972159,5.5597534 C 11.702865,5.2904252 11.352138,5.15625 11.000688,5.15625 Z m 0,3.3206786 2.866105,2.8668214 -2.866105,2.866822 -2.8668409,-2.866822 z" />
    <path
       id="rect1111-8-2-2-6-9-91-7-7-2"
       style="fill:#f8f6f7;fill-opacity:1;stroke:#d74168;stroke-width:0;stroke-linecap:round;stroke-linejoin:round;stroke-miterlimit:4;stroke-dasharray:none;stroke-opacity:1;paint-order:normal"
       d="M 10.998969,5.5 C 10.757347,5.5 10.51676,5.592797 10.33165,5.7779541 L 5.7818096,10.327942 c 0,0.0013 -0.00344,0.0021 -0.00413,0.0034 v 6.87e-4 c -0.046131,0.04618 -0.0869,0.09538 -0.1215156,0.147705 -1.065e-4,1.42e-4 1.031e-4,5.16e-4 0,6.87e-4 -0.034581,0.05231 -0.064213,0.107126 -0.087281,0.163819 -6.54e-5,1.81e-4 6.87e-5,4.81e-4 0,6.87e-4 -0.023031,0.05669 -0.040184,0.115252 -0.0517,0.174561 -3.1e-5,2.1e-4 3.44e-5,4.47e-4 0,6.87e-4 C 5.5058438,10.879375 5.5,10.939822 5.5,11 c 0,2.23e-4 0,4.47e-4 0,6.88e-4 3.44e-5,0.06018 0.00585,0.119961 0.017531,0.17926 3.44e-5,2.2e-4 -3.43e-5,4.47e-4 0,6.88e-4 0.011688,0.0593 0.028531,0.117887 0.0517,0.17456 6.88e-5,2e-4 -1.031e-4,4.81e-4 0,6.87e-4 0.023031,0.05668 0.052663,0.111523 0.087279,0.163819 1.032e-4,1.67e-4 -1.031e-4,5.16e-4 0,6.88e-4 0.03465,0.0523 0.07535,0.101541 0.1215157,0.147704 1.375e-4,1.26e-4 -1.375e-4,5.5e-4 0,6.88e-4 0,0.0013 0.00344,0.0021 0.00413,0.0034 l 4.5498413,4.549988 c 0.185108,0.185158 0.425699,0.277954 0.667321,0.277954 0.24167,0 0.483602,-0.0928 0.668711,-0.277954 l 4.54984,-4.549988 0.0041,-0.004 c 0.04616,-0.04616 0.08686,-0.0954 0.121516,-0.147704 1.03e-4,-1.68e-4 -1.03e-4,-5.16e-4 0,-6.88e-4 0.03461,-0.0523 0.06418,-0.107138 0.08728,-0.163819 1.03e-4,-2e-4 -6.9e-5,-4.81e-4 0,-6.88e-4 0.02304,-0.05667 0.04015,-0.115257 0.0517,-0.17456 3.4e-5,-2.2e-4 -3.5e-5,-4.47e-4 0,-6.87e-4 0.01169,-0.0593 0.01753,-0.119082 0.01753,-0.179261 0,-0.06061 -0.0059,-0.121551 -0.01753,-0.181274 -0.01169,-0.05931 -0.02853,-0.117875 -0.0517,-0.17456 -6.9e-5,-1.82e-4 6.8e-5,-4.81e-4 0,-6.88e-4 -0.02303,-0.05669 -0.0527,-0.111506 -0.08728,-0.163819 -1.03e-4,-1.41e-4 1.03e-4,-5.15e-4 0,-6.87e-4 -0.03461,-0.05232 -0.07539,-0.101522 -0.121516,-0.147705 l -0.0041,-0.004 -4.54984,-4.549988 C 11.482742,5.5927966 11.240811,5.5 10.99914,5.5 Z m 0,2.2833862 L 14.215524,11 10.998969,14.216614 7.7831566,11 Z" />
  </g>
</svg>
