<?xml version="1.0" encoding="UTF-8" standalone="no"?>
<svg
   xmlns:dc="http://purl.org/dc/elements/1.1/"
   xmlns:cc="http://creativecommons.org/ns#"
   xmlns:rdf="http://www.w3.org/1999/02/22-rdf-syntax-ns#"
   xmlns:svg="http://www.w3.org/2000/svg"
   xmlns="http://www.w3.org/2000/svg"
   xmlns:sodipodi="http://sodipodi.sourceforge.net/DTD/sodipodi-0.dtd"
   xmlns:inkscape="http://www.inkscape.org/namespaces/inkscape"
   width="22"
   height="22"
   viewBox="0 0 22 22"
   version="1.1"
   id="svg6374"
   inkscape:version="1.0.2 (e86c870879, 2021-01-15)"
   sodipodi:docname="maximize-backdrop.svg">
  <defs
     id="defs6368" />
  <sodipodi:namedview
     id="base"
     pagecolor="#cecece"
     bordercolor="#666666"
     borderopacity="1.0"
     inkscape:pageopacity="0"
     inkscape:pageshadow="2"
     inkscape:zoom="8.2682603"
     inkscape:cx="7.9217518"
     inkscape:cy="4.1319515"
     inkscape:document-units="px"
     inkscape:current-layer="layer1"
     inkscape:document-rotation="0"
     showgrid="false"
     units="px"
     inkscape:window-width="1267"
     inkscape:window-height="1008"
     inkscape:window-x="65"
     inkscape:window-y="54"
     inkscape:window-maximized="0" />
  <metadata
     id="metadata6371">
    <rdf:RDF>
      <cc:Work
         rdf:about="">
        <dc:format>image/svg+xml</dc:format>
        <dc:type
           rdf:resource="http://purl.org/dc/dcmitype/StillImage" />
        <dc:title></dc:title>
      </cc:Work>
    </rdf:RDF>
  </metadata>
  <g
     inkscape:label="Layer 1"
     inkscape:groupmode="layer"
     id="layer1">
    <path
       id="rect1295-9-1-7-6-5-9"
       style="fill:#2f3034;fill-opacity:1;stroke:#d74168;stroke-width:0;stroke-linecap:round;stroke-linejoin:round;stroke-miterlimit:4;stroke-dasharray:none;stroke-opacity:1;paint-order:normal"
       d="m 11.000341,7.3211875 c -0.351471,0 -0.703512,0.1341863 -0.972823,0.4035144 L 5.2164656,12.536676 c -0.5386184,0.538653 -0.5386184,1.405738 0,1.944394 0.5386319,0.538653 1.4063429,0.538653 1.9449682,0 l 3.8389072,-3.839106 3.8389,3.839106 c 0.538626,0.538653 1.405663,0.538653 1.944288,0 0.538625,-0.538656 0.538625,-1.405741 0,-1.944394 L 11.97248,7.7247019 C 11.703172,7.4553738 11.351801,7.3211875 11.000341,7.3211875 Z" />
    <path
       id="rect1111-8-2-2-6-9-91-0-6"
       style="fill:#85858f;fill-opacity:1;stroke:#d74168;stroke-width:0;stroke-linecap:round;stroke-linejoin:round;stroke-miterlimit:4;stroke-dasharray:none;stroke-opacity:1;paint-order:normal"
       d="m 10.999667,7.7767829 c -0.24164,0 -0.482863,0.092795 -0.668017,0.2779528 L 5.7777294,12.608749 c -0.3703046,0.370316 -0.3703046,0.966419 0,1.336734 0.3703082,0.370312 0.9663947,0.370312 1.3367029,0 l 3.8852347,-3.885317 3.885231,3.885317 c 0.370304,0.370312 0.967068,0.370312 1.337373,0 0.370304,-0.370315 0.370304,-0.966418 0,-1.336734 L 11.668353,8.0547357 C 11.483199,7.8695782 11.241299,7.7767829 10.999667,7.7767829 Z" />
  </g>
</svg>
