<?xml version="1.0" encoding="UTF-8" standalone="no"?>
<svg
   xmlns:dc="http://purl.org/dc/elements/1.1/"
   xmlns:cc="http://creativecommons.org/ns#"
   xmlns:rdf="http://www.w3.org/1999/02/22-rdf-syntax-ns#"
   xmlns:svg="http://www.w3.org/2000/svg"
   xmlns="http://www.w3.org/2000/svg"
   xmlns:xlink="http://www.w3.org/1999/xlink"
   xmlns:sodipodi="http://sodipodi.sourceforge.net/DTD/sodipodi-0.dtd"
   xmlns:inkscape="http://www.inkscape.org/namespaces/inkscape"
   width="44"
   height="44"
   viewBox="0 0 44 44"
   version="1.1"
   id="svg6374"
   inkscape:version="1.0.2 (e86c870879, 2021-01-15)"
   sodipodi:docname="minimize-hover@2.svg">
  <defs
     id="defs6368">
    <radialGradient
       inkscape:collect="always"
       xlink:href="#linearGradient899-5"
       id="radialGradient876"
       cx="192"
       cy="192"
       fx="192"
       fy="192"
       r="192"
       gradientUnits="userSpaceOnUse"
       gradientTransform="matrix(0.13845488,0,0,0.1348742,-4.583344,-3.8958282)" />
    <linearGradient
       inkscape:collect="always"
       id="linearGradient900-5">
      <stop
         style="stop-color:#eb759d;stop-opacity:1"
         offset="0"
         id="stop896-3" />
      <stop
         style="stop-color:#d14875;stop-opacity:1"
         offset="1"
         id="stop898-5" />
    </linearGradient>
    <radialGradient
       inkscape:collect="always"
       xlink:href="#linearGradient900-5"
       id="radialGradient1077"
       cx="32"
       cy="32"
       fx="32"
       fy="32"
       r="28"
       gradientUnits="userSpaceOnUse"
       gradientTransform="matrix(0.89679034,0,0,0.88042042,4.5304454,52.28365)" />
    <linearGradient
       inkscape:collect="always"
       id="linearGradient899-5">
      <stop
         style="stop-color:#8888f1;stop-opacity:1"
         offset="0"
         id="stop895-6" />
      <stop
         style="stop-color:#5c5ce5;stop-opacity:1"
         offset="1"
         id="stop897-2" />
    </linearGradient>
  </defs>
  <sodipodi:namedview
     id="base"
     pagecolor="#cecece"
     bordercolor="#666666"
     borderopacity="1.0"
     inkscape:pageopacity="0"
     inkscape:pageshadow="2"
     inkscape:zoom="5.9340556"
     inkscape:cx="22.8279"
     inkscape:cy="14.555977"
     inkscape:document-units="px"
     inkscape:current-layer="layer1"
     inkscape:document-rotation="0"
     showgrid="false"
     units="px"
     inkscape:window-width="1267"
     inkscape:window-height="1008"
     inkscape:window-x="65"
     inkscape:window-y="54"
     inkscape:window-maximized="0" />
  <metadata
     id="metadata6371">
    <rdf:RDF>
      <cc:Work
         rdf:about="">
        <dc:format>image/svg+xml</dc:format>
        <dc:type
           rdf:resource="http://purl.org/dc/dcmitype/StillImage" />
        <dc:title></dc:title>
      </cc:Work>
    </rdf:RDF>
  </metadata>
  <g
     inkscape:label="Layer 1"
     inkscape:groupmode="layer"
     id="layer1">
    <circle
       style="fill:url(#radialGradient876);fill-opacity:1;stroke:none;stroke-width:0;stroke-linecap:round;stroke-linejoin:round;stroke-miterlimit:4;stroke-dasharray:none;paint-order:normal"
       id="path1011-9-1-0"
       cx="22"
       cy="22"
       r="22" />
    <path
       id="rect1295-9-1-7-6-44"
       style="opacity:0.65;fill:#282178;fill-opacity:1;stroke:#d74168;stroke-width:0;stroke-linecap:round;stroke-linejoin:round;stroke-miterlimit:4;stroke-dasharray:none;stroke-opacity:1;paint-order:normal"
       d="m 22.000676,29.99356 c -0.702942,0 -1.407024,-0.268372 -1.945646,-0.807028 l -9.622106,-9.623949 c -1.0772366,-1.077305 -1.0772366,-2.811476 0,-3.888788 1.077265,-1.077306 2.812687,-1.077306 3.889938,0 l 7.677814,7.678213 7.6778,-7.678213 c 1.077252,-1.077306 2.811326,-1.077306 3.888576,0 1.07725,1.077312 1.07725,2.811483 0,3.888788 l -9.622098,9.623949 c -0.538616,0.538656 -1.241358,0.807028 -1.944278,0.807028 z" />
    <path
       id="rect1111-8-2-2-6-9-91-76"
       style="fill:#edeceb;fill-opacity:1;stroke:#d74168;stroke-width:0;stroke-linecap:round;stroke-linejoin:round;stroke-miterlimit:4;stroke-dasharray:none;stroke-opacity:1;paint-order:normal"
       d="m 21.999328,28.44619 c -0.483278,0 -0.965724,-0.1856 -1.336032,-0.555906 L 11.555454,18.78225 c -0.74061,-0.74063 -0.74061,-1.93283 0,-2.67346 0.740616,-0.74063 1.93279,-0.74063 2.673406,0 l 7.770468,7.770626 7.770462,-7.770626 c 0.74061,-0.74063 1.934138,-0.74063 2.674746,0 0.74061,0.74063 0.74061,1.93283 0,2.67346 l -9.107834,9.108034 c -0.370308,0.370316 -0.85411,0.555906 -1.337374,0.555906 z" />
    <circle
       style="fill:url(#radialGradient1077);fill-opacity:1;stroke:none;stroke-width:0;stroke-linecap:round;stroke-linejoin:round;stroke-miterlimit:4;stroke-dasharray:none;paint-order:normal"
       id="path1011"
       cx="33.227745"
       cy="80.457108"
       r="0" />
    <circle
       style="fill:#f690f6;fill-opacity:1;stroke:none;stroke-width:0.611906;stroke-miterlimit:4;stroke-dasharray:none;stroke-opacity:1"
       id="path1201"
       cx="8.8876925"
       cy="81.488503"
       r="0" />
  </g>
</svg>
