<?xml version="1.0" encoding="UTF-8" standalone="no"?>
<svg
   xmlns:dc="http://purl.org/dc/elements/1.1/"
   xmlns:cc="http://creativecommons.org/ns#"
   xmlns:rdf="http://www.w3.org/1999/02/22-rdf-syntax-ns#"
   xmlns:svg="http://www.w3.org/2000/svg"
   xmlns="http://www.w3.org/2000/svg"
   xmlns:sodipodi="http://sodipodi.sourceforge.net/DTD/sodipodi-0.dtd"
   xmlns:inkscape="http://www.inkscape.org/namespaces/inkscape"
   width="22"
   height="22"
   viewBox="0 0 22 22"
   version="1.1"
   id="svg6374"
   inkscape:version="1.0.2 (e86c870879, 2021-01-15)"
   sodipodi:docname="restore.svg">
  <defs
     id="defs6368" />
  <sodipodi:namedview
     id="base"
     pagecolor="#cecece"
     bordercolor="#666666"
     borderopacity="1.0"
     inkscape:pageopacity="0"
     inkscape:pageshadow="2"
     inkscape:zoom="12.881462"
     inkscape:cx="20.130993"
     inkscape:cy="22.794873"
     inkscape:document-units="px"
     inkscape:current-layer="layer1"
     inkscape:document-rotation="0"
     showgrid="false"
     units="px"
     inkscape:window-width="1267"
     inkscape:window-height="1008"
     inkscape:window-x="65"
     inkscape:window-y="54"
     inkscape:window-maximized="0" />
  <metadata
     id="metadata6371">
    <rdf:RDF>
      <cc:Work
         rdf:about="">
        <dc:format>image/svg+xml</dc:format>
        <dc:type
           rdf:resource="http://purl.org/dc/dcmitype/StillImage" />
        <dc:title></dc:title>
      </cc:Work>
    </rdf:RDF>
  </metadata>
  <g
     inkscape:label="Layer 1"
     inkscape:groupmode="layer"
     id="layer1">
    <path
       id="rect1295-9-1-7-2-1-1-0-3"
       style="fill:#2f3034;fill-opacity:1;stroke:#d74168;stroke-width:0;stroke-linecap:round;stroke-linejoin:round;stroke-miterlimit:4;stroke-dasharray:none;stroke-opacity:1;paint-order:normal"
       d="m 11.00066,4.8124996 c -0.351487,0 -0.703558,0.134176 -0.972853,0.4035041 L 5.2166154,10.027833 c -0.134648,0.134664 -0.236158,0.289747 -0.3034648,0.455201 -0.033688,0.08273 -0.058369,0.167881 -0.075213,0.254454 -0.016844,0.08678 -0.025437,0.174443 -0.025437,0.262512 0,0.08786 0.00859,0.175267 0.025437,0.261841 0.050429,0.259968 0.1765168,0.508162 0.3786779,0.710328 l 4.8111915,4.811827 c 0.269364,0.269328 0.621435,0.403504 0.972922,0.403504 0.351452,0 0.702182,-0.134176 0.971478,-0.403504 l 4.811178,-4.811827 c 0.06734,-0.06733 0.126741,-0.139875 0.177238,-0.216187 0.101132,-0.152818 0.16782,-0.320757 0.20144,-0.494141 0.01684,-0.08657 0.02544,-0.173982 0.02544,-0.261841 0,-0.08807 -0.0086,-0.175732 -0.02544,-0.262512 -0.01685,-0.08657 -0.04153,-0.171727 -0.07521,-0.254454 -0.06731,-0.165454 -0.168816,-0.320537 -0.303464,-0.455201 L 11.972207,5.2160037 C 11.702911,4.9466756 11.352181,4.8124996 11.000729,4.8124996 Z m 0,3.32068 L 13.866784,11 11.00066,13.866823 8.1338005,11 Z" />
    <path
       id="rect1111-8-2-2-6-9-91-7-7-2-3-1-4"
       style="fill:#b1b1c2;fill-opacity:1;stroke:#d74168;stroke-width:0;stroke-linecap:round;stroke-linejoin:round;stroke-miterlimit:4;stroke-dasharray:none;stroke-opacity:1;paint-order:normal"
       d="m 10.998962,5.4999996 c -0.241622,0 -0.482209,0.092797 -0.667318,0.2779505 L 5.7818091,10.327841 c 0,0.0014 -0.00344,0.0021 -0.00413,0.0034 v 6.87e-4 c -0.046131,0.04618 -0.0869,0.09538 -0.121515,0.147703 -1.146e-4,1.15e-4 1.146e-4,3.44e-4 0,6.88e-4 -0.034582,0.05231 -0.064213,0.107124 -0.087282,0.163814 -5.73e-5,1.72e-4 5.73e-5,3.44e-4 0,6.87e-4 -0.023031,0.05668 -0.040184,0.115247 -0.0517,0.174556 -3.09e-5,2.29e-4 3.44e-5,3.44e-4 0,6.88e-4 C 5.5058438,10.879329 5.5,10.939776 5.5,10.999952 c 0,2.29e-4 0,3.43e-4 0,6.87e-4 3.44e-5,0.06018 0.00584,0.11996 0.017531,0.179258 3.43e-5,2.29e-4 -3.44e-5,3.44e-4 0,6.88e-4 0.011687,0.0593 0.028531,0.117883 0.0517,0.174556 5.72e-5,1.72e-4 -1.146e-4,3.44e-4 0,6.87e-4 0.023031,0.05668 0.052662,0.111521 0.087278,0.163815 1.146e-4,1.71e-4 -1.146e-4,3.43e-4 0,6.87e-4 0.034649,0.05231 0.07535,0.101539 0.121515,0.147703 1.146e-4,1.15e-4 -1.146e-4,6.88e-4 0,6.88e-4 0,0.0014 0.00344,0.0021 0.00413,0.0034 l 4.549835,4.549895 c 0.18511,0.185153 0.4257,0.277947 0.667322,0.277947 0.24167,0 0.4836,-0.09279 0.66871,-0.277947 l 4.549835,-4.549895 0.0041,-0.004 c 0.04616,-0.04616 0.08686,-0.0954 0.121515,-0.147703 1.14e-4,-1.72e-4 -1.15e-4,-6.87e-4 0,-6.87e-4 0.03461,-0.05229 0.06418,-0.107135 0.08728,-0.163814 1.14e-4,-1.72e-4 -5.7e-5,-3.44e-4 0,-6.88e-4 0.02303,-0.05667 0.04015,-0.115254 0.0517,-0.174556 3.4e-5,-2.29e-4 -3.5e-5,-3.44e-4 0,-6.88e-4 0.01169,-0.0593 0.01753,-0.119079 0.01753,-0.179258 0,-0.06061 -0.0058,-0.121548 -0.01753,-0.18127 -0.01169,-0.05931 -0.02853,-0.117872 -0.0517,-0.174555 -5.7e-5,-1.72e-4 5.7e-5,-3.44e-4 0,-6.88e-4 -0.02303,-0.05669 -0.0527,-0.111503 -0.08728,-0.163817 -1.15e-4,-1.15e-4 1.14e-4,-3.44e-4 0,-6.88e-4 -0.03461,-0.05232 -0.07539,-0.101518 -0.121515,-0.147699 l -0.0041,-0.004 -4.549835,-4.5498947 C 11.482739,5.5929445 11.240809,5.5001474 10.999139,5.5001474 Z m 0,2.2833399 3.21655,3.2165465 -3.21655,3.216547 -3.2158083,-3.216547 z" />
  </g>
</svg>
