<?xml version="1.0" encoding="UTF-8" standalone="no"?>
<svg
   xmlns:dc="http://purl.org/dc/elements/1.1/"
   xmlns:cc="http://creativecommons.org/ns#"
   xmlns:rdf="http://www.w3.org/1999/02/22-rdf-syntax-ns#"
   xmlns:svg="http://www.w3.org/2000/svg"
   xmlns="http://www.w3.org/2000/svg"
   xmlns:xlink="http://www.w3.org/1999/xlink"
   xmlns:sodipodi="http://sodipodi.sourceforge.net/DTD/sodipodi-0.dtd"
   xmlns:inkscape="http://www.inkscape.org/namespaces/inkscape"
   width="22"
   height="22"
   viewBox="0 0 22 22"
   version="1.1"
   id="svg6374"
   inkscape:version="1.0.2 (e86c870879, 2021-01-15)"
   sodipodi:docname="restore-active.svg">
  <defs
     id="defs6368">
    <linearGradient
       inkscape:collect="always"
       xlink:href="#linearGradient899"
       id="linearGradient2432"
       x1="132"
       y1="104"
       x2="132"
       y2="160"
       gradientUnits="userSpaceOnUse"
       gradientTransform="matrix(0.34375002,0,0,0.34375002,-34.375002,-34.374999)" />
    <linearGradient
       inkscape:collect="always"
       id="linearGradient899">
      <stop
         style="stop-color:#17797d;stop-opacity:1"
         offset="0"
         id="stop895" />
      <stop
         style="stop-color:#1fa8ad;stop-opacity:1"
         offset="1"
         id="stop897" />
    </linearGradient>
    <linearGradient
       inkscape:collect="always"
       xlink:href="#linearGradient1773"
       id="linearGradient2349"
       gradientUnits="userSpaceOnUse"
       gradientTransform="matrix(0.34375002,0,0,0.34375002,-2.0645143e-7,2.7907309e-6)"
       x1="32"
       y1="0"
       x2="32"
       y2="64" />
    <linearGradient
       inkscape:collect="always"
       id="linearGradient1773">
      <stop
         style="stop-color:#12a7ab;stop-opacity:1"
         offset="0"
         id="stop1769" />
      <stop
         style="stop-color:#299599;stop-opacity:1"
         offset="1"
         id="stop1771" />
    </linearGradient>
  </defs>
  <sodipodi:namedview
     id="base"
     pagecolor="#cecece"
     bordercolor="#666666"
     borderopacity="1.0"
     inkscape:pageopacity="0"
     inkscape:pageshadow="2"
     inkscape:zoom="1.8363976"
     inkscape:cx="32.78799"
     inkscape:cy="136.36405"
     inkscape:document-units="px"
     inkscape:current-layer="layer1"
     inkscape:document-rotation="0"
     showgrid="false"
     units="px"
     inkscape:window-width="1267"
     inkscape:window-height="1008"
     inkscape:window-x="65"
     inkscape:window-y="54"
     inkscape:window-maximized="0" />
  <metadata
     id="metadata6371">
    <rdf:RDF>
      <cc:Work
         rdf:about="">
        <dc:format>image/svg+xml</dc:format>
        <dc:type
           rdf:resource="http://purl.org/dc/dcmitype/StillImage" />
        <dc:title></dc:title>
      </cc:Work>
    </rdf:RDF>
  </metadata>
  <g
     inkscape:label="Layer 1"
     inkscape:groupmode="layer"
     id="layer1">
    <circle
       style="fill:url(#linearGradient2349);fill-opacity:1;stroke:none;stroke-width:0;stroke-linecap:round;stroke-linejoin:round;stroke-miterlimit:4;stroke-dasharray:none;paint-order:normal"
       id="path1011-9-8-3"
       cx="11"
       cy="11"
       r="11" />
    <circle
       style="fill:url(#linearGradient2432);fill-opacity:1;stroke:none;stroke-width:0;stroke-linecap:round;stroke-linejoin:round;stroke-miterlimit:4;stroke-dasharray:none;paint-order:normal"
       id="path1011-92-9"
       cx="11"
       cy="11"
       r="9.625" />
    <path
       id="rect1295-9-1-7-2-1-1"
       style="opacity:0.8;fill:#00595c;fill-opacity:1;stroke:none;stroke-width:0;stroke-linecap:round;stroke-linejoin:round;stroke-miterlimit:4;stroke-dasharray:none;stroke-opacity:1;paint-order:normal"
       d="m 11.000616,5.1562475 c -0.351484,0 -0.703553,0.134176 -0.972846,0.4035041 L 5.2166103,10.371581 c -0.1346469,0.134665 -0.2361563,0.289747 -0.3034625,0.455201 -0.033688,0.08273 -0.058369,0.167881 -0.075213,0.254454 -0.016844,0.08678 -0.025437,0.174443 -0.025437,0.262512 0,0.08786 0.00859,0.175268 0.025437,0.261841 0.050428,0.259968 0.1765156,0.508162 0.378675,0.710328 l 4.8111602,4.811827 c 0.269362,0.269328 0.621431,0.403504 0.972915,0.403504 0.35145,0 0.702178,-0.134176 0.971472,-0.403504 l 4.811146,-4.811827 c 0.06734,-0.06733 0.12674,-0.139875 0.177237,-0.216187 0.101131,-0.152818 0.167819,-0.320757 0.201438,-0.494141 0.01684,-0.08657 0.02544,-0.173982 0.02544,-0.261841 0,-0.08807 -0.0086,-0.175732 -0.02544,-0.262512 -0.01684,-0.08657 -0.04153,-0.171727 -0.07521,-0.254454 -0.06731,-0.165454 -0.168815,-0.320536 -0.303462,-0.455201 L 11.972157,5.5597516 C 11.702863,5.2904235 11.352135,5.1562475 11.000685,5.1562475 Z m 0,3.3206802 2.866105,2.8668203 -2.866105,2.866823 -2.8668402,-2.866823 z" />
    <path
       id="rect1111-8-2-2-6-9-91-7-7-2-3"
       style="fill:#e3e1e2;fill-opacity:1;stroke:#d74168;stroke-width:0;stroke-linecap:round;stroke-linejoin:round;stroke-miterlimit:4;stroke-dasharray:none;stroke-opacity:1;paint-order:normal"
       d="m 10.998966,5.4999975 c -0.241621,0 -0.482209,0.092799 -0.667318,0.2779565 l -4.5498406,4.549985 c 0,0.0014 -0.00344,0.0021 -0.00413,0.0034 v 6.88e-4 c -0.046131,0.04618 -0.0869,0.09538 -0.1215156,0.147706 -1.146e-4,1.14e-4 1.146e-4,3.44e-4 0,6.87e-4 -0.034581,0.05232 -0.064213,0.107127 -0.087282,0.163818 -5.73e-5,1.72e-4 5.73e-5,3.44e-4 0,6.87e-4 -0.023031,0.05668 -0.040184,0.115249 -0.0517,0.17456 -3.1e-5,2.29e-4 3.43e-5,3.44e-4 0,6.88e-4 -0.011344,0.05923 -0.017188,0.119676 -0.017188,0.179853 0,2.29e-4 0,3.44e-4 0,6.88e-4 3.43e-5,0.06018 0.00584,0.119961 0.017531,0.179262 3.44e-5,2.29e-4 -3.44e-5,3.43e-4 0,6.87e-4 0.011688,0.0593 0.028531,0.117886 0.0517,0.17456 5.73e-5,1.72e-4 -1.146e-4,3.44e-4 0,6.87e-4 0.023031,0.05668 0.052663,0.111523 0.087278,0.163818 1.146e-4,1.72e-4 -1.145e-4,3.44e-4 0,6.87e-4 0.03465,0.05231 0.07535,0.101541 0.1215156,0.147706 1.146e-4,1.15e-4 -1.146e-4,6.88e-4 0,6.88e-4 0,0.0014 0.00344,0.0021 0.00413,0.0034 l 4.5498406,4.549989 c 0.18511,0.185157 0.4257,0.277953 0.667322,0.277953 0.24167,0 0.483601,-0.0928 0.668711,-0.277953 l 4.54984,-4.549989 0.0041,-0.004 c 0.04617,-0.04616 0.08687,-0.0954 0.121516,-0.147705 1.15e-4,-1.72e-4 -1.15e-4,-6.88e-4 0,-6.88e-4 0.03462,-0.0523 0.06418,-0.107137 0.08728,-0.163817 1.15e-4,-1.72e-4 -5.7e-5,-3.44e-4 0,-6.88e-4 0.02303,-0.05667 0.04015,-0.115256 0.0517,-0.17456 3.5e-5,-2.29e-4 -3.4e-5,-3.43e-4 0,-6.87e-4 0.01169,-0.0593 0.01753,-0.119082 0.01753,-0.179262 0,-0.06061 -0.0058,-0.12155 -0.01753,-0.181273 -0.01169,-0.05931 -0.02853,-0.117876 -0.0517,-0.17456 -5.7e-5,-1.72e-4 5.7e-5,-3.44e-4 0,-6.88e-4 -0.02303,-0.05669 -0.0527,-0.111505 -0.08728,-0.163821 -1.15e-4,-1.14e-4 1.15e-4,-3.43e-4 0,-6.87e-4 -0.03462,-0.05232 -0.07538,-0.10152 -0.121516,-0.147703 l -0.0041,-0.004 -4.54984,-4.5499889 C 11.48274,5.5929441 11.240808,5.5001453 10.999138,5.5001453 Z m 0,2.2833871 3.216555,3.2166134 -3.216555,3.216613 -3.2158117,-3.216613 z" />
  </g>
</svg>
