<?xml version="1.0" encoding="UTF-8" standalone="no"?>
<svg
   xmlns:dc="http://purl.org/dc/elements/1.1/"
   xmlns:cc="http://creativecommons.org/ns#"
   xmlns:rdf="http://www.w3.org/1999/02/22-rdf-syntax-ns#"
   xmlns:svg="http://www.w3.org/2000/svg"
   xmlns="http://www.w3.org/2000/svg"
   xmlns:sodipodi="http://sodipodi.sourceforge.net/DTD/sodipodi-0.dtd"
   xmlns:inkscape="http://www.inkscape.org/namespaces/inkscape"
   width="64"
   height="64"
   viewBox="0 0 64 64.000003"
   version="1.1"
   id="svg8"
   inkscape:version="1.0.2 (e86c870879, 2021-01-15)"
   sodipodi:docname="keyboard-enter-symbolic.svg">
  <defs
     id="defs2" />
  <sodipodi:namedview
     id="base"
     pagecolor="#c3c3c3"
     bordercolor="#666666"
     borderopacity="1.0"
     inkscape:pageopacity="0"
     inkscape:pageshadow="2"
     inkscape:zoom="4.6896242"
     inkscape:cx="54.615666"
     inkscape:cy="43.351684"
     inkscape:document-units="px"
     inkscape:current-layer="layer1"
     inkscape:document-rotation="0"
     showgrid="false"
     units="px"
     inkscape:window-width="1024"
     inkscape:window-height="1080"
     inkscape:window-x="68"
     inkscape:window-y="56"
     inkscape:window-maximized="0" />
  <metadata
     id="metadata5">
    <rdf:RDF>
      <cc:Work
         rdf:about="">
        <dc:format>image/svg+xml</dc:format>
        <dc:type
           rdf:resource="http://purl.org/dc/dcmitype/StillImage" />
        <dc:title />
      </cc:Work>
    </rdf:RDF>
  </metadata>
  <g
     inkscape:label="Layer 1"
     inkscape:groupmode="layer"
     id="layer1">
    <path
       id="rect1049-73-9-2-5-7-3-2-7"
       style="fill:#808084;fill-opacity:1;stroke:none;stroke-width:7.99992;stroke-linecap:square;stroke-linejoin:miter;stroke-miterlimit:4;stroke-dasharray:none;stroke-opacity:1"
       d="m 27.069596,56.75011 v -0.006 h -0.0137 c -0.1114,0 -0.22312,-0.0173 -0.33398,-0.0352 -0.0453,-0.005 -0.0923,-0.005 -0.13671,-0.0176 -0.0535,-0.0131 -0.10501,-0.0386 -0.15821,-0.0566 -0.10148,-0.032 -0.20557,-0.0611 -0.30077,-0.10742 -0.14639,-0.0709 -0.28289,-0.15884 -0.4121,-0.25976 0.001,0 -0.0125,8.2e-4 -0.0117,0 L 4.9704058,39.98627 c -0.67584,-0.53071 -1.03126,-1.37552 -1.01756,-2.23242 l 0.002,-0.002 c -0.0133,-0.85692 0.34175,-1.70183 1.01755,-2.23242 L 25.704426,19.23818 c -0.007,-0.0119 0.005,-0.0109 0.006,-0.0117 0.10561,-0.0815 0.21906,-0.15109 0.33592,-0.21289 0.03,-0.0155 0.0566,-0.0364 0.0859,-0.0508 0.0724,-0.0344 0.15222,-0.056 0.22851,-0.082 0.0747,-0.0261 0.14655,-0.0602 0.22265,-0.0781 0.0628,-0.012 0.13102,-0.0116 0.19532,-0.0234 0.0877,-0.0117 0.1738,-0.0293 0.2617,-0.0293 h 0.0312 c 0.0722,0 0.13964,0.01 0.21094,0.0215 0.0769,0.007 0.15386,0.0127 0.23046,0.0293 0.0879,0.0178 0.16901,0.0498 0.25391,0.0781 0.0617,0.0214 0.12348,0.0385 0.18358,0.0645 0.091,0.0405 0.17672,0.0922 0.26172,0.14453 0.0495,0.0296 0.0991,0.0553 0.14648,0.0898 0.11139,0.0803 0.21499,0.17179 0.31249,0.27149 0.0121,0.0141 0.0278,0.0221 0.0391,0.0351 0.32903,0.34948 0.56506,0.80227 0.67381,1.31445 0.005,0.0238 0.0196,0.0465 0.0195,0.0703 0.009,0.0662 0.009,0.13628 0.0195,0.20508 0.0129,0.10947 0.0284,0.21881 0.0293,0.32812 v 0.0195 11.95313 h 5.08389 c 0.0485,0 0.0901,0.0207 0.13672,0.0273 v -0.0273 h 4.37492 c 6.81706,0 12.24976,-5.4327 12.24976,-12.25 V 17.09754 16.74989 16.44911 8.24989 c 0,-0.554 0.44599,-1 0.99998,-1 h 6.74987 c 0.55399,0 0.99998,0.446 0.99998,1 v 8.19922 0.30078 4.375 c 0,11.5461 -9.45372,21 -20.99959,21 h -4.37492 v -0.0274 c -0.0466,0.007 -0.0883,0.0274 -0.13672,0.0274 h -5.08389 v 11.95312 0.0195 c 0,0.10937 -0.016,0.21687 -0.0293,0.32617 -0.008,0.0691 -0.009,0.14129 -0.0215,0.20899 -0.0108,0.0104 -0.0128,0.0162 -0.01,0.0293 -0.0685,0.3477 -0.1989,0.66582 -0.37499,0.94726 -0.0957,0.14597 -0.20215,0.28201 -0.3164,0.41016 -0.11006,0.11508 -0.22794,0.22025 -0.35546,0.31055 -0.0327,0.0238 -0.0682,0.0403 -0.10156,0.0605 -0.0966,0.0609 -0.19428,0.12167 -0.29883,0.16797 -0.06,0.0272 -0.12238,0.043 -0.18358,0.0644 -0.0835,0.0285 -0.16516,0.0602 -0.25196,0.0781 -0.0942,0.02 -0.19014,0.0213 -0.28514,0.0332 -0.0513,0.003 -0.1027,0.0148 -0.1543,0.0156 z" />
  </g>
</svg>
