<?xml version="1.0" encoding="UTF-8" standalone="no"?>
<svg
   xmlns:dc="http://purl.org/dc/elements/1.1/"
   xmlns:cc="http://creativecommons.org/ns#"
   xmlns:rdf="http://www.w3.org/1999/02/22-rdf-syntax-ns#"
   xmlns:svg="http://www.w3.org/2000/svg"
   xmlns="http://www.w3.org/2000/svg"
   xmlns:sodipodi="http://sodipodi.sourceforge.net/DTD/sodipodi-0.dtd"
   xmlns:inkscape="http://www.inkscape.org/namespaces/inkscape"
   width="64"
   height="64"
   viewBox="0 0 16.933333 16.933334"
   version="1.1"
   id="svg841"
   inkscape:version="1.0.2 (e86c870879, 2021-01-15)"
   sodipodi:docname="no-events.svg">
  <defs
     id="defs835" />
  <sodipodi:namedview
     id="base"
     pagecolor="#c4c4c4"
     bordercolor="#666666"
     borderopacity="1.0"
     inkscape:pageopacity="0"
     inkscape:pageshadow="2"
     inkscape:zoom="4.020787"
     inkscape:cx="68.811251"
     inkscape:cy="38.515083"
     inkscape:document-units="px"
     inkscape:current-layer="layer1"
     inkscape:document-rotation="0"
     showgrid="false"
     units="px"
     inkscape:window-width="1920"
     inkscape:window-height="1006"
     inkscape:window-x="0"
     inkscape:window-y="0"
     inkscape:window-maximized="1" />
  <metadata
     id="metadata838">
    <rdf:RDF>
      <cc:Work
         rdf:about="">
        <dc:format>image/svg+xml</dc:format>
        <dc:type
           rdf:resource="http://purl.org/dc/dcmitype/StillImage" />
        <dc:title />
      </cc:Work>
    </rdf:RDF>
  </metadata>
  <g
     inkscape:label="Layer 1"
     inkscape:groupmode="layer"
     id="layer1">
    <path
       id="rect848-5-9"
       style="display:inline;fill:#76767a;fill-opacity:1;stroke-width:1.19063;stroke-linecap:round;stroke-linejoin:round;stroke-dashoffset:2.1875"
       d="m 4.2333334,0.52916667 c -0.2931584,0 -0.5291667,0.2360084 -0.5291667,0.52916673 V 2.1166668 H 2.6458333 c -0.879475,0 -1.5875,0.708025 -1.5875,1.5875 V 14.81667 c 0,0.879475 0.708025,1.5875 1.5875,1.5875 H 14.2875 c 0.879475,0 1.5875,-0.708025 1.5875,-1.5875 V 3.7041668 c 0,-0.879475 -0.708025,-1.5875 -1.5875,-1.5875 H 13.229167 V 1.0583334 c 0,-0.29315833 -0.236009,-0.52916673 -0.529167,-0.52916673 h -1.058333 c -0.293159,0 -0.529167,0.2360084 -0.529167,0.52916673 V 2.1166668 H 5.8208334 V 1.0583334 c 0,-0.29315833 -0.2360083,-0.52916673 -0.5291667,-0.52916673 z M 3.175,6.6145836 h 10.583333 c 0.439738,0 0.79375,0.3540151 0.79375,0.7937531 v 6.8791663 c 0,0.439738 -0.354012,0.79375 -0.79375,0.79375 H 3.175 c -0.4397375,0 -0.79375,-0.354012 -0.79375,-0.79375 V 7.4083367 c 0,-0.439738 0.3540125,-0.7937531 0.79375,-0.7937531 z" />
  </g>
</svg>
