<?xml version="1.0" encoding="UTF-8" standalone="no"?>
<svg
   xmlns:dc="http://purl.org/dc/elements/1.1/"
   xmlns:cc="http://creativecommons.org/ns#"
   xmlns:rdf="http://www.w3.org/1999/02/22-rdf-syntax-ns#"
   xmlns:svg="http://www.w3.org/2000/svg"
   xmlns="http://www.w3.org/2000/svg"
   xmlns:sodipodi="http://sodipodi.sourceforge.net/DTD/sodipodi-0.dtd"
   xmlns:inkscape="http://www.inkscape.org/namespaces/inkscape"
   width="44"
   height="44"
   viewBox="0 0 44 44"
   version="1.1"
   id="svg6374"
   inkscape:version="1.0.2 (e86c870879, 2021-01-15)"
   sodipodi:docname="maximize-backdrop.svg">
  <defs
     id="defs6368" />
  <sodipodi:namedview
     id="base"
     pagecolor="#cecece"
     bordercolor="#666666"
     borderopacity="1.0"
     inkscape:pageopacity="0"
     inkscape:pageshadow="2"
     inkscape:zoom="8.671069"
     inkscape:cx="10.978885"
     inkscape:cy="11.171718"
     inkscape:document-units="px"
     inkscape:current-layer="layer1"
     inkscape:document-rotation="0"
     showgrid="false"
     units="px"
     inkscape:window-width="1920"
     inkscape:window-height="1008"
     inkscape:window-x="0"
     inkscape:window-y="0"
     inkscape:window-maximized="1" />
  <metadata
     id="metadata6371">
    <rdf:RDF>
      <cc:Work
         rdf:about="">
        <dc:format>image/svg+xml</dc:format>
        <dc:type
           rdf:resource="http://purl.org/dc/dcmitype/StillImage" />
        <dc:title></dc:title>
      </cc:Work>
    </rdf:RDF>
  </metadata>
  <g
     inkscape:label="Layer 1"
     inkscape:groupmode="layer"
     id="layer1">
    <path
       id="rect1295-9-1-7-6-5-9"
       style="fill:#555558;fill-opacity:1;stroke:#d74168;stroke-width:0;stroke-linecap:round;stroke-linejoin:round;stroke-miterlimit:4;stroke-dasharray:none;stroke-opacity:1;paint-order:normal"
       d="m 21.999682,14.642 c -0.702942,0 -1.407024,0.268376 -1.945646,0.807042 l -9.622108,9.62411 c -1.0772373,1.077324 -1.0772373,2.811522 0,3.888856 1.077264,1.077322 2.812686,1.077322 3.889938,0 l 7.677816,-7.678346 7.677802,7.678346 c 1.077252,1.077322 2.811326,1.077322 3.888578,0 1.07725,-1.077332 1.07725,-2.811532 0,-3.888856 L 23.94396,15.449043 C 23.405344,14.910376 22.702602,14.642 21.999682,14.642 Z" />
    <path
       id="rect1111-8-2-2-6-9-91-0-6"
       style="fill:#a0a0a0;fill-opacity:1;stroke:#d74168;stroke-width:0;stroke-linecap:round;stroke-linejoin:round;stroke-miterlimit:4;stroke-dasharray:none;stroke-opacity:1;paint-order:normal"
       d="m 21.998334,15.553206 c -0.483278,0 -0.965726,0.1856 -1.336034,0.555914 l -9.107844,9.108181 c -0.74061,0.740644 -0.74061,1.932872 0,2.673513 0.740616,0.740634 1.93279,0.740634 2.673406,0 l 7.770472,-7.770763 7.770464,7.770763 c 0.74061,0.740634 1.934138,0.740634 2.674746,0 0.74061,-0.740644 0.74061,-1.932872 0,-2.673513 l -9.107838,-9.10818 c -0.370308,-0.370322 -0.854108,-0.555914 -1.337372,-0.555915 z" />
  </g>
</svg>
