<?xml version="1.0" encoding="UTF-8" standalone="no"?>
<svg
   xmlns:dc="http://purl.org/dc/elements/1.1/"
   xmlns:cc="http://creativecommons.org/ns#"
   xmlns:rdf="http://www.w3.org/1999/02/22-rdf-syntax-ns#"
   xmlns:svg="http://www.w3.org/2000/svg"
   xmlns="http://www.w3.org/2000/svg"
   xmlns:sodipodi="http://sodipodi.sourceforge.net/DTD/sodipodi-0.dtd"
   xmlns:inkscape="http://www.inkscape.org/namespaces/inkscape"
   width="44"
   height="44"
   viewBox="0 0 44 44"
   version="1.1"
   id="svg6374"
   inkscape:version="1.0.2 (e86c870879, 2021-01-15)"
   sodipodi:docname="restore-backdrop.svg">
  <defs
     id="defs6368" />
  <sodipodi:namedview
     id="base"
     pagecolor="#cecece"
     bordercolor="#666666"
     borderopacity="1.0"
     inkscape:pageopacity="0"
     inkscape:pageshadow="2"
     inkscape:zoom="5.5681537"
     inkscape:cx="2.5185236"
     inkscape:cy="15.410015"
     inkscape:document-units="px"
     inkscape:current-layer="layer1"
     inkscape:document-rotation="0"
     showgrid="false"
     units="px"
     inkscape:window-width="1920"
     inkscape:window-height="1008"
     inkscape:window-x="0"
     inkscape:window-y="0"
     inkscape:window-maximized="1" />
  <metadata
     id="metadata6371">
    <rdf:RDF>
      <cc:Work
         rdf:about="">
        <dc:format>image/svg+xml</dc:format>
        <dc:type
           rdf:resource="http://purl.org/dc/dcmitype/StillImage" />
        <dc:title></dc:title>
      </cc:Work>
    </rdf:RDF>
  </metadata>
  <g
     inkscape:label="Layer 1"
     inkscape:groupmode="layer"
     id="layer1">
    <path
       id="rect1295-9-1-7-2-1-1-0-3"
       style="fill:#555558;fill-opacity:1;stroke:#d74168;stroke-width:0;stroke-linecap:round;stroke-linejoin:round;stroke-miterlimit:4;stroke-dasharray:none;stroke-opacity:1;paint-order:normal"
       d="m 22.000318,9.624001 c -0.70297,0 -1.407114,0.26835 -1.945706,0.807009 l -9.62238,9.623656 c -0.269297,0.269328 -0.4723173,0.579496 -0.6069313,0.910404 -0.06738,0.16546 -0.11674,0.33576 -0.15042,0.508906 -0.033694,0.17356 -0.05088,0.348886 -0.05088,0.525024 0,0.17572 0.0172,0.350536 0.05088,0.523684 0.10086,0.519936 0.3530343,1.016322 0.7573573,1.420656 l 9.62238,9.62365 c 0.53873,0.538658 1.242872,0.807008 1.945844,0.807008 0.702906,0 1.404366,-0.26835 1.942956,-0.807008 l 9.622356,-9.62365 c 0.13468,-0.13466 0.253484,-0.27975 0.354478,-0.432376 0.202264,-0.305634 0.33564,-0.641514 0.402878,-0.98828 0.03368,-0.17314 0.05088,-0.347964 0.05088,-0.523684 0,-0.17614 -0.0172,-0.351462 -0.05088,-0.525024 -0.03368,-0.17314 -0.08306,-0.343454 -0.15042,-0.508906 -0.13462,-0.330908 -0.337634,-0.641076 -0.60693,-0.910404 L 23.943412,10.43101 C 23.404822,9.892351 22.703362,9.624001 22.000456,9.624001 Z m 0,6.641361 L 27.732566,21.999 22.000318,27.732646 16.266602,21.999 Z" />
    <path
       id="rect1111-8-2-2-6-9-91-7-7-2-3-1-4"
       style="fill:#a0a0a0;fill-opacity:1;stroke:#d74168;stroke-width:0;stroke-linecap:round;stroke-linejoin:round;stroke-miterlimit:4;stroke-dasharray:none;stroke-opacity:1;paint-order:normal"
       d="m 21.996922,10.999002 c -0.483242,0 -0.964416,0.1856 -1.334634,0.5559 l -9.099668,9.099782 c 0,0.0028 -0.0068,0.0042 -0.0082,0.0068 v 0.0014 c -0.09226,0.09236 -0.1738,0.19076 -0.24303,0.295406 -2.3e-4,2.3e-4 2.28e-4,6.88e-4 0,0.0014 -0.06916,0.10462 -0.12842,0.214248 -0.17456,0.327628 -1.14e-4,3.44e-4 1.14e-4,6.86e-4 0,0.0014 -0.04606,0.11336 -0.08036,0.230494 -0.1034,0.349112 -6.2e-5,4.58e-4 6.8e-5,6.88e-4 0,0.0014 -0.02268,0.11846 -0.03438,0.23935 -0.03438,0.3597 0,4.6e-4 0,6.88e-4 0,0.0014 6.8e-5,0.12036 0.0116,0.239916 0.03506,0.358516 6.8e-5,4.58e-4 -7e-5,6.88e-4 0,0.0014 0.02338,0.1186 0.05706,0.235766 0.1034,0.34911 1.14e-4,3.46e-4 -2.3e-4,6.88e-4 0,0.0014 0.04606,0.11336 0.10532,0.223042 0.17456,0.327628 2.28e-4,3.46e-4 -2.3e-4,6.88e-4 0,0.0014 0.0693,0.10462 0.1507,0.203076 0.24303,0.295408 2.3e-4,2.28e-4 -2.32e-4,0.0014 0,0.0014 0,0.0028 0.0068,0.0042 0.0082,0.0068 l 9.099668,9.099786 c 0.370218,0.370308 0.851398,0.555894 1.334642,0.555894 0.48334,0 0.967202,-0.18558 1.33742,-0.555894 l 9.09967,-9.099786 0.0082,-0.008 c 0.09234,-0.09232 0.17374,-0.1908 0.24303,-0.295406 2.3e-4,-3.44e-4 -2.28e-4,-0.0014 0,-0.0014 0.06924,-0.10458 0.12836,-0.214268 0.17456,-0.327628 2.3e-4,-3.42e-4 -1.14e-4,-6.86e-4 0,-0.0014 0.04606,-0.11334 0.0803,-0.230508 0.1034,-0.349112 7e-5,-4.58e-4 -6.8e-5,-6.88e-4 0,-0.0014 0.02338,-0.1186 0.03506,-0.238158 0.03506,-0.358516 0,-0.12122 -0.0116,-0.243096 -0.03506,-0.36254 -0.02338,-0.11862 -0.05706,-0.235744 -0.1034,-0.34911 -1.14e-4,-3.44e-4 1.16e-4,-6.88e-4 0,-0.0014 -0.04606,-0.11338 -0.1054,-0.223006 -0.17456,-0.327634 -2.28e-4,-2.3e-4 2.3e-4,-6.88e-4 0,-0.0014 -0.06924,-0.10464 -0.15076,-0.203036 -0.24303,-0.295398 l -0.0082,-0.008 -9.09967,-9.099792 c -0.370562,-0.370328 -0.854424,-0.555922 -1.337764,-0.555922 z m 0,4.566678 6.4331,6.433094 -6.4331,6.433094 -6.431614,-6.433094 z" />
  </g>
</svg>
