<?xml version="1.0" encoding="UTF-8" standalone="no"?>
<svg
   xmlns:dc="http://purl.org/dc/elements/1.1/"
   xmlns:cc="http://creativecommons.org/ns#"
   xmlns:rdf="http://www.w3.org/1999/02/22-rdf-syntax-ns#"
   xmlns:svg="http://www.w3.org/2000/svg"
   xmlns="http://www.w3.org/2000/svg"
   xmlns:xlink="http://www.w3.org/1999/xlink"
   xmlns:sodipodi="http://sodipodi.sourceforge.net/DTD/sodipodi-0.dtd"
   xmlns:inkscape="http://www.inkscape.org/namespaces/inkscape"
   width="22"
   height="22"
   viewBox="0 0 22 22"
   version="1.1"
   id="svg6374"
   inkscape:version="1.0.2 (e86c870879, 2021-01-15)"
   sodipodi:docname="close-hover.svg">
  <defs
     id="defs6368">
    <radialGradient
       inkscape:collect="always"
       xlink:href="#linearGradient900-5"
       id="radialGradient1077"
       cx="32"
       cy="32"
       fx="32"
       fy="32"
       r="28"
       gradientUnits="userSpaceOnUse"
       gradientTransform="matrix(0.44839517,0,0,0.44021021,-3.348649,-3.086733)" />
    <linearGradient
       inkscape:collect="always"
       id="linearGradient900-5">
      <stop
         style="stop-color:#eb759d;stop-opacity:1"
         offset="0"
         id="stop896-3" />
      <stop
         style="stop-color:#d14875;stop-opacity:1"
         offset="1"
         id="stop898-5" />
    </linearGradient>
    <radialGradient
       inkscape:collect="always"
       xlink:href="#linearGradient900-5"
       id="radialGradient876"
       cx="192"
       cy="192"
       fx="192"
       fy="192"
       r="192"
       gradientUnits="userSpaceOnUse"
       gradientTransform="matrix(0.06922744,0,0,0.0674371,-2.2916716,-1.9479151)" />
  </defs>
  <sodipodi:namedview
     id="base"
     pagecolor="#cecece"
     bordercolor="#666666"
     borderopacity="1.0"
     inkscape:pageopacity="0"
     inkscape:pageshadow="2"
     inkscape:zoom="14.138385"
     inkscape:cx="20.365135"
     inkscape:cy="23.894538"
     inkscape:document-units="px"
     inkscape:current-layer="layer1"
     inkscape:document-rotation="0"
     showgrid="false"
     units="px"
     inkscape:window-width="1200"
     inkscape:window-height="1008"
     inkscape:window-x="65"
     inkscape:window-y="54"
     inkscape:window-maximized="0" />
  <metadata
     id="metadata6371">
    <rdf:RDF>
      <cc:Work
         rdf:about="">
        <dc:format>image/svg+xml</dc:format>
        <dc:type
           rdf:resource="http://purl.org/dc/dcmitype/StillImage" />
        <dc:title></dc:title>
      </cc:Work>
    </rdf:RDF>
  </metadata>
  <g
     inkscape:label="Layer 1"
     inkscape:groupmode="layer"
     id="layer1">
    <circle
       style="fill:url(#radialGradient1077);fill-opacity:1;stroke:none;stroke-width:0;stroke-linecap:round;stroke-linejoin:round;stroke-miterlimit:4;stroke-dasharray:none;paint-order:normal"
       id="path1011"
       cx="11"
       cy="11"
       r="0" />
    <circle
       style="fill:url(#radialGradient876);fill-opacity:1;stroke:none;stroke-width:0;stroke-linecap:round;stroke-linejoin:round;stroke-miterlimit:4;stroke-dasharray:none;paint-order:normal"
       id="path1011-9-1-0"
       cx="11"
       cy="11"
       r="11" />
    <path
       id="rect1295-2"
       style="fill:#932540;fill-opacity:1;stroke:#d74168;stroke-width:0;stroke-linecap:round;stroke-linejoin:round;stroke-miterlimit:4;stroke-dasharray:none;stroke-opacity:1;paint-order:normal"
       d="m 16.783559,5.5602112 c -0.538618,-0.538615 -1.405851,-0.538615 -1.94447,0 L 11,9.3993006 7.1609106,5.5602112 c -0.5386184,-0.538615 -1.405855,-0.538615 -1.9444697,0 -0.5386185,0.5386185 -0.538615,1.4058516 0,1.94447 l 3.8390925,3.8390928 -3.8390925,3.839089 c -0.5386185,0.538619 -0.5386185,1.405849 0,1.944467 0.5386182,0.538618 1.4058513,0.538618 1.9444697,-3e-6 L 11,13.288241 14.839093,17.12733 c 0.538615,0.538618 1.405848,0.538618 1.944466,3e-6 0.538615,-0.538618 0.538619,-1.405851 0,-1.94447 L 12.94447,11.343774 16.783556,7.5046847 c 0.538622,-0.5386219 0.538622,-1.405855 3e-6,-1.9444735 z" />
    <path
       id="rect1109-1-0"
       style="fill:#ebeced;fill-opacity:1;stroke:#d74168;stroke-width:0;stroke-linecap:round;stroke-linejoin:round;stroke-miterlimit:4;stroke-dasharray:none;stroke-opacity:1;paint-order:normal"
       d="m 16.222315,5.7776847 c -0.370328,-0.3703219 -0.96659,-0.3703219 -1.336912,0 L 11,9.6630875 7.1145972,5.7776847 c -0.3703253,-0.3703253 -0.9665872,-0.3703219 -1.3369125,0 -0.3703219,0.3703253 -0.3703253,0.9665872 0,1.3369125 L 9.6630875,11 5.7776847,14.885403 c -0.3703219,0.370322 -0.3703253,0.966587 0,1.336912 0.3703253,0.370326 0.9665906,0.370322 1.3369125,0 L 11,12.336912 l 3.885403,3.885403 c 0.370325,0.370326 0.966587,0.370322 1.336912,0 0.370322,-0.370325 0.370326,-0.966587 0,-1.336912 L 12.336912,11 16.222315,7.1145972 c 0.370322,-0.3703219 0.370326,-0.9665872 0,-1.3369125 z" />
    <circle
       style="fill:#f690f6;fill-opacity:1;stroke:none;stroke-width:0.305953;stroke-miterlimit:4;stroke-dasharray:none;stroke-opacity:1"
       id="path1201"
       cx="-1.1700253"
       cy="11.515693"
       r="0" />
  </g>
</svg>
