<?xml version="1.0" encoding="UTF-8" standalone="no"?>
<svg
   xmlns:dc="http://purl.org/dc/elements/1.1/"
   xmlns:cc="http://creativecommons.org/ns#"
   xmlns:rdf="http://www.w3.org/1999/02/22-rdf-syntax-ns#"
   xmlns:svg="http://www.w3.org/2000/svg"
   xmlns="http://www.w3.org/2000/svg"
   xmlns:sodipodi="http://sodipodi.sourceforge.net/DTD/sodipodi-0.dtd"
   xmlns:inkscape="http://www.inkscape.org/namespaces/inkscape"
   width="44"
   height="44"
   viewBox="0 0 44 44"
   version="1.1"
   id="svg6374"
   inkscape:version="1.0.2 (e86c870879, 2021-01-15)"
   sodipodi:docname="close-backdrop@2.svg">
  <defs
     id="defs6368" />
  <sodipodi:namedview
     id="base"
     pagecolor="#cecece"
     bordercolor="#666666"
     borderopacity="1.0"
     inkscape:pageopacity="0"
     inkscape:pageshadow="2"
     inkscape:zoom="7.2835371"
     inkscape:cx="31.914084"
     inkscape:cy="30.480164"
     inkscape:document-units="px"
     inkscape:current-layer="layer1"
     inkscape:document-rotation="0"
     showgrid="false"
     units="px"
     inkscape:window-width="1920"
     inkscape:window-height="1008"
     inkscape:window-x="0"
     inkscape:window-y="0"
     inkscape:window-maximized="1" />
  <metadata
     id="metadata6371">
    <rdf:RDF>
      <cc:Work
         rdf:about="">
        <dc:format>image/svg+xml</dc:format>
        <dc:type
           rdf:resource="http://purl.org/dc/dcmitype/StillImage" />
        <dc:title></dc:title>
      </cc:Work>
    </rdf:RDF>
  </metadata>
  <g
     inkscape:label="Layer 1"
     inkscape:groupmode="layer"
     id="layer1">
    <path
       id="rect1295-2-7-4-0"
       style="fill:#2f3034;fill-opacity:1;stroke:#d74168;stroke-width:0;stroke-linecap:round;stroke-linejoin:round;stroke-miterlimit:4;stroke-dasharray:none;stroke-opacity:1;paint-order:normal"
       d="m 33.567122,10.432882 c -1.077236,-1.0772365 -2.811702,-1.0772365 -3.888946,0 l -7.678172,7.67818 -7.678186,-7.67818 c -1.07723,-1.0772365 -2.811704,-1.0772297 -3.888934,0 -1.0772368,1.077238 -1.0772368,2.811698 0,3.888934 l 7.67818,7.678186 -7.67818,7.678178 c -1.0772368,1.077238 -1.0772368,2.811698 0,3.888942 1.07723,1.077232 2.811698,1.077232 3.888934,-1.2e-5 l 7.678186,-7.678174 7.678178,7.678174 c 1.077238,1.077244 2.811704,1.077244 3.888934,1.2e-5 1.077236,-1.077244 1.077236,-2.811704 6e-6,-3.888942 l -7.678186,-7.678178 7.67818,-7.678178 c 1.077236,-1.077244 1.077236,-2.811704 6e-6,-3.888942 z" />
    <path
       id="rect1109-1-0-8-5-6"
       style="fill:#85858f;fill-opacity:1;stroke:#d74168;stroke-width:0;stroke-linecap:round;stroke-linejoin:round;stroke-miterlimit:4;stroke-dasharray:none;stroke-opacity:1;paint-order:normal"
       d="m 32.444628,11.55537 c -0.740652,-0.740646 -1.933182,-0.740646 -2.673818,0 l -7.770806,7.770804 -7.770806,-7.770804 c -0.74065,-0.740652 -1.933182,-0.740646 -2.673826,0 -0.74065,0.74065 -0.74065,1.933174 0,2.673824 L 19.326178,22 11.555372,29.770806 c -0.74065,0.740644 -0.74065,1.933174 0,2.673824 0.740652,0.740654 1.933176,0.740642 2.673826,0 l 7.770806,-7.770806 7.770798,7.770806 c 0.740652,0.740654 1.933182,0.740642 2.673826,0 0.74065,-0.74065 0.74065,-1.933174 0,-2.673824 L 24.673828,22 l 7.7708,-7.770806 c 0.740644,-0.740644 0.74065,-1.933174 0,-2.673824 z" />
  </g>
</svg>
