<?xml version="1.0" encoding="UTF-8" standalone="no"?>
<svg
   xmlns:dc="http://purl.org/dc/elements/1.1/"
   xmlns:cc="http://creativecommons.org/ns#"
   xmlns:rdf="http://www.w3.org/1999/02/22-rdf-syntax-ns#"
   xmlns:svg="http://www.w3.org/2000/svg"
   xmlns="http://www.w3.org/2000/svg"
   xmlns:xlink="http://www.w3.org/1999/xlink"
   xmlns:sodipodi="http://sodipodi.sourceforge.net/DTD/sodipodi-0.dtd"
   xmlns:inkscape="http://www.inkscape.org/namespaces/inkscape"
   width="22"
   height="22"
   viewBox="0 0 22 22"
   version="1.1"
   id="svg6374"
   inkscape:version="1.0.2 (e86c870879, 2021-01-15)"
   sodipodi:docname="maximize-backdrop-hover.svg">
  <defs
     id="defs6368">
    <radialGradient
       inkscape:collect="always"
       xlink:href="#linearGradient899"
       id="radialGradient876"
       cx="192"
       cy="192"
       fx="192"
       fy="192"
       r="192"
       gradientUnits="userSpaceOnUse"
       gradientTransform="matrix(0.06922744,0,0,0.0674371,-2.2916717,-1.9479175)" />
    <linearGradient
       inkscape:collect="always"
       id="linearGradient899">
      <stop
         style="stop-color:#199094;stop-opacity:1"
         offset="0"
         id="stop895" />
      <stop
         style="stop-color:#157175;stop-opacity:1"
         offset="1"
         id="stop897" />
    </linearGradient>
  </defs>
  <sodipodi:namedview
     id="base"
     pagecolor="#cecece"
     bordercolor="#666666"
     borderopacity="1.0"
     inkscape:pageopacity="0"
     inkscape:pageshadow="2"
     inkscape:zoom="11.441128"
     inkscape:cx="17.728053"
     inkscape:cy="21.597936"
     inkscape:document-units="px"
     inkscape:current-layer="layer1"
     inkscape:document-rotation="0"
     showgrid="false"
     units="px"
     inkscape:window-width="1267"
     inkscape:window-height="1008"
     inkscape:window-x="65"
     inkscape:window-y="54"
     inkscape:window-maximized="0" />
  <metadata
     id="metadata6371">
    <rdf:RDF>
      <cc:Work
         rdf:about="">
        <dc:format>image/svg+xml</dc:format>
        <dc:type
           rdf:resource="http://purl.org/dc/dcmitype/StillImage" />
        <dc:title></dc:title>
      </cc:Work>
    </rdf:RDF>
  </metadata>
  <g
     inkscape:label="Layer 1"
     inkscape:groupmode="layer"
     id="layer1">
    <circle
       style="fill:url(#radialGradient876);fill-opacity:1;stroke:none;stroke-width:0;stroke-linecap:round;stroke-linejoin:round;stroke-miterlimit:4;stroke-dasharray:none;paint-order:normal"
       id="path1011-9-1-0"
       cx="11"
       cy="11"
       r="11" />
    <path
       id="rect1295-9-1-7-6-5"
       style="opacity:0.7;fill:#083d3f;fill-opacity:1;stroke:#d74168;stroke-width:0;stroke-linecap:round;stroke-linejoin:round;stroke-miterlimit:4;stroke-dasharray:none;stroke-opacity:1;paint-order:normal"
       d="m 11.00034,7.4329034 c -0.351471,0 -0.703512,0.1341862 -0.972823,0.4035144 L 5.2164639,12.648392 c -0.5386184,0.538653 -0.5386184,1.405738 0,1.944394 0.5386324,0.538653 1.4063433,0.538653 1.9449687,0 l 3.8389074,-3.839106 3.8389,3.839106 c 0.538625,0.538653 1.405663,0.538653 1.944288,0 0.538625,-0.538656 0.538625,-1.405741 0,-1.944394 L 11.972478,7.8364178 C 11.703171,7.5670896 11.3518,7.4329034 11.00034,7.4329034 Z" />
    <path
       id="rect1111-8-2-2-6-9-91-0"
       style="fill:#bbb9ba;fill-opacity:1;stroke:#d74168;stroke-width:0;stroke-linecap:round;stroke-linejoin:round;stroke-miterlimit:4;stroke-dasharray:none;stroke-opacity:1;paint-order:normal"
       d="m 10.999666,7.7767806 c -0.241639,0 -0.482862,0.092795 -0.668016,0.2779528 L 5.7777288,12.608747 c -0.3703049,0.370315 -0.3703049,0.966419 0,1.336734 0.3703081,0.370311 0.9663947,0.370311 1.3367028,0 l 3.8852344,-3.885317 3.885231,3.885317 c 0.370305,0.370311 0.967068,0.370311 1.337373,0 0.370305,-0.370315 0.370305,-0.966419 0,-1.336734 L 11.668353,8.0547334 C 11.483198,7.8695759 11.241298,7.7767806 10.999666,7.7767806 Z" />
  </g>
</svg>
