<?xml version="1.0" encoding="UTF-8" standalone="no"?>
<svg
   xmlns:dc="http://purl.org/dc/elements/1.1/"
   xmlns:cc="http://creativecommons.org/ns#"
   xmlns:rdf="http://www.w3.org/1999/02/22-rdf-syntax-ns#"
   xmlns:svg="http://www.w3.org/2000/svg"
   xmlns="http://www.w3.org/2000/svg"
   xmlns:sodipodi="http://sodipodi.sourceforge.net/DTD/sodipodi-0.dtd"
   xmlns:inkscape="http://www.inkscape.org/namespaces/inkscape"
   width="22"
   height="22"
   viewBox="0 0 22 22"
   version="1.1"
   id="svg6374"
   inkscape:version="1.0.2 (e86c870879, 2021-01-15)"
   sodipodi:docname="minimize-backdrop.svg">
  <defs
     id="defs6368" />
  <sodipodi:namedview
     id="base"
     pagecolor="#cecece"
     bordercolor="#666666"
     borderopacity="1.0"
     inkscape:pageopacity="0"
     inkscape:pageshadow="2"
     inkscape:zoom="10.441682"
     inkscape:cx="19.294554"
     inkscape:cy="10.749512"
     inkscape:document-units="px"
     inkscape:current-layer="layer1"
     inkscape:document-rotation="0"
     showgrid="false"
     units="px"
     inkscape:window-width="1267"
     inkscape:window-height="1008"
     inkscape:window-x="65"
     inkscape:window-y="54"
     inkscape:window-maximized="0" />
  <metadata
     id="metadata6371">
    <rdf:RDF>
      <cc:Work
         rdf:about="">
        <dc:format>image/svg+xml</dc:format>
        <dc:type
           rdf:resource="http://purl.org/dc/dcmitype/StillImage" />
        <dc:title></dc:title>
      </cc:Work>
    </rdf:RDF>
  </metadata>
  <g
     inkscape:label="Layer 1"
     inkscape:groupmode="layer"
     id="layer1">
    <path
       id="rect1295-9-1-7-6-5-9"
       style="fill:#2f3034;fill-opacity:1;stroke:#d74168;stroke-width:0;stroke-linecap:round;stroke-linejoin:round;stroke-miterlimit:4;stroke-dasharray:none;stroke-opacity:1;paint-order:normal"
       d="m 11.000341,14.885059 c -0.351471,0 -0.703512,-0.134186 -0.972823,-0.403514 L 5.2164656,9.6695707 c -0.5386184,-0.5386528 -0.5386184,-1.4057381 0,-1.9443943 0.5386319,-0.5386528 1.4063429,-0.5386528 1.9449682,0 l 3.8389072,3.8391066 3.8389,-3.8391066 c 0.538626,-0.5386528 1.405663,-0.5386528 1.944288,0 0.538625,0.5386562 0.538625,1.4057415 0,1.9443943 L 11.97248,14.481545 c -0.269308,0.269328 -0.620679,0.403514 -0.972139,0.403514 z" />
    <path
       id="rect1111-8-2-2-6-9-91-0-6"
       style="fill:#85858f;fill-opacity:1;stroke:#d74168;stroke-width:0;stroke-linecap:round;stroke-linejoin:round;stroke-miterlimit:4;stroke-dasharray:none;stroke-opacity:1;paint-order:normal"
       d="m 10.999667,14.429464 c -0.24164,0 -0.482863,-0.0928 -0.668017,-0.277953 L 5.7777294,9.5974972 c -0.3703046,-0.370315 -0.3703046,-0.9664187 0,-1.3367337 0.3703082,-0.3703116 0.9663947,-0.3703116 1.3367029,0 L 10.999667,12.14608 14.884898,8.2607635 c 0.370304,-0.3703116 0.967068,-0.3703116 1.337373,0 0.370304,0.370315 0.370304,0.9664187 0,1.3367337 l -4.553918,4.5540138 c -0.185154,0.185157 -0.427054,0.277953 -0.668686,0.277953 z" />
  </g>
</svg>
